TestCfg,EncodeMethod,CodecName,EncodePreset,Class,Name,OrigRes,FPS,BitDepth,CodedRes,QP,Bitrate(kbps),PSNR_Y,PSNR_U,PSNR_V,SSIM_Y(dB),MS-SSIM_Y(dB),VMAF_Y,VMAF_Y-NEG,PSNR-HVS,CIEDE2000,APSNR_Y,APSNR_U,APSNR_V,CAMBI,EncT[s],DecT[s],EncInstr,DecInstr,EncCycles,DecCycles,EncMD5,DecMD5
AS,aom,av2,0,A1,BoxingPractice,3840x2160,60.0000,10,3840x2160,110,19316.047645,42.254586,48.434656,48.296669,28.980315,20.206165,99.975223,99.776417,42.782391,43.083766,42.201663,48.405569,48.267780,1.182131,29852.35,16.99,192188395711626,66518529052,78586950685463,46352341898,0dbb3e0bdbc224c51addc1e551aa8e16,
AS,aom,av2,0,A1,BoxingPractice,3840x2160,60.0000,10,3840x2160,135,7321.842465,41.352146,47.076519,46.747677,27.128861,19.396974,98.913037,96.923663,41.112436,42.122489,41.335083,47.059491,46.727311,1.216020,29474.12,14.58,182753975477489,54754034805,77588919556215,40057914355,db04684fbc1c3261e48b8e2e195aaa68,
AS,aom,av2,0,A1,BoxingPractice,3840x2160,60.0000,10,3840x2160,160,3151.762699,39.911854,45.308380,44.716025,24.550184,18.174601,93.043032,90.838219,38.544812,40.819645,39.891974,45.288584,44.692625,1.307683,17351.19,10.28,112814968290345,43298703858,46076492219894,28236125235,96907b0bcb8b134b844cd581524fc715,
AS,aom,av2,0,A1,BoxingPractice,3840x2160,60.0000,10,3840x2160,185,1558.563283,37.686334,43.157136,42.356276,21.178778,16.291595,82.259224,79.866025,35.114162,38.994010,37.656528,43.139810,42.337586,1.431393,11219.11,9.45,73099044731833,35468303324,29955522763798,26060777324,7fb8e47ec4b04069b51bcc627fda6e47,
AS,aom,av2,0,A1,BoxingPractice,3840x2160,60.0000,10,3840x2160,210,752.721740,34.721650,40.591742,39.814570,17.357611,13.863599,64.588225,62.142929,31.229738,36.528820,34.684806,40.578642,39.803138,1.597533,6597.19,7.95,44299497897992,29912767033,18864400863676,23657766720,9525a669bcd5a8019b6950c55361f61a,
AS,aom,av2,0,A1,BoxingPractice,3840x2160,60.0000,10,3840x2160,235,356.837009,31.436512,38.143438,37.560319,13.625291,11.303608,42.393721,40.223130,27.446519,33.856622,31.397086,38.131638,37.550818,1.267961,3958.34,7.42,25023522239223,25957766562,10480011802120,20448214838,bc372a371ddbcff476579da6c316699c,
AS,aom,av2,0,A1,BoxingPractice,3840x2160,60.0000,10,2560x1440,110,9975.910858,41.439428,46.848898,46.812225,28.014402,19.740312,99.885792,97.830259,41.835456,42.269459,41.423315,46.835671,46.794858,1.275327,18722.93,7.47,117942125729763,32690938248,49228700028750,20087007519,cd410a94837c62ac226e1c960335fba8,
AS,aom,av2,0,A1,BoxingPractice,3840x2160,60.0000,10,2560x1440,135,4275.847230,40.445788,45.664115,45.345529,25.897235,18.797827,96.377109,93.758025,39.813467,41.316445,40.432018,45.651061,45.327080,1.289572,18279.65,6.40,116532553902792,27530376072,48033736740588,17374438790,b583f9c4229f1b2699ef0bd50412d43a,
AS,aom,av2,0,A1,BoxingPractice,3840x2160,60.0000,10,2560x1440,160,2057.356797,38.697042,43.967150,43.311860,22.845300,17.230919,87.928132,85.343147,36.757959,39.841661,38.673877,43.952638,43.294086,1.398243,12010.57,5.52,77604083538327,21950208858,31741880047402,15103444461,9201f60dccb5c72984b55e5f27c4817a,
AS,aom,av2,0,A1,BoxingPractice,3840x2160,60.0000,10,2560x1440,185,1016.819488,36.184103,41.876714,41.016756,19.236779,15.076618,73.885350,71.297018,33.121369,37.817057,36.152360,41.863934,41.003105,1.477051,8701.07,4.26,56283396620187,17026711776,23104824253270,11634604484,9c28ca5761f67b2195d364253d6befe7,
AS,aom,av2,0,A1,BoxingPractice,3840x2160,60.0000,10,2560x1440,210,484.179205,33.049041,39.456666,38.700412,15.415780,12.538125,53.505584,51.102886,29.248801,35.327779,33.010056,39.446917,38.692253,1.389007,3804.97,3.80,26652933173786,13682808963,10944895745351,11173668558,eebd94d195ea47a6fc0f3cce5de00ce6,
AS,aom,av2,0,A1,BoxingPractice,3840x2160,60.0000,10,2560x1440,235,221.933144,29.775112,37.064986,36.681499,11.877148,10.083652,30.128277,28.394614,25.652778,32.616924,29.737496,37.059339,36.675798,1.275653,2279.12,2.91,14631577358386,11581848674,6024371004289,7938776976,3282d3f772012aebbb622c4d8bc58e94,
AS,aom,av2,0,A1,BoxingPractice,3840x2160,60.0000,10,1920x1080,110,6715.234304,40.507610,45.735132,45.481320,27.186478,19.238536,97.597208,94.966237,40.781143,41.574038,40.497678,45.726799,45.467635,1.320813,7976.71,4.93,60804556150199,20767023097,27413671365207,17363506346,1aaf972ab986f3f4b2a4efda5e4161a0,
AS,aom,av2,0,A1,BoxingPractice,3840x2160,60.0000,10,1920x1080,135,3128.848997,39.447964,44.651717,44.149499,24.805915,18.166213,92.730375,89.863974,38.523581,40.614725,39.433886,44.641023,44.133562,1.397333,10152.58,4.16,63706028105649,17044578193,26674396415458,11228514693,daa9a35d4c3c1b625161543c1c3f4fea,
AS,aom,av2,0,A1,BoxingPractice,3840x2160,60.0000,10,1920x1080,160,1526.405902,37.570687,43.062098,42.262730,21.478037,16.390489,82.329164,79.565687,35.267096,39.054557,37.546243,43.050010,42.244517,1.479366,7380.94,3.75,45997738022532,13522705710,19470149824075,10288933257,78d117ab8edb21d7163bc0bf8bb3183d,
AS,aom,av2,0,A1,BoxingPractice,3840x2160,60.0000,10,1920x1080,185,749.970030,34.983705,40.947318,40.101398,17.808669,14.139166,65.985091,63.424665,31.634159,36.921060,34.951375,40.935442,40.090130,1.498184,5645.15,2.78,36492785872137,10098565759,14931748044474,7548556726,8b3b223fc2179eda62fee7958652cd74,
AS,aom,av2,0,A1,BoxingPractice,3840x2160,60.0000,10,1920x1080,210,350.522093,31.855662,38.604961,37.969085,14.073817,11.622982,44.958991,42.681269,27.903737,34.473591,31.819634,38.596972,37.961893,1.476106,4169.31,2.41,26647731435089,8153762991,11065771128954,6665451008,e6d7f89e86357f2d76939a3c0c1e20cf,
AS,aom,av2,0,A1,BoxingPractice,3840x2160,60.0000,10,1920x1080,235,157.411819,28.605204,36.351290,36.085890,10.672495,9.243337,21.623569,20.151147,24.446498,31.744423,28.567275,36.344210,36.081568,1.218422,1316.27,1.77,10103406668838,6319788824,4552313134907,6341167117,1c3c9889346edfc6afbc6c14a9adef9e,
AS,aom,av2,0,A1,BoxingPractice,3840x2160,60.0000,10,1280x720,110,4008.680550,38.253570,44.343202,43.649880,25.609234,17.940534,89.690875,86.998669,37.299077,40.298893,38.247361,44.337102,43.639005,1.399591,3863.05,2.49,24672859915829,10662010376,10943947570911,7124169440,f0cef6e01b075a26af92e58291b43c3f,
AS,aom,av2,0,A1,BoxingPractice,3840x2160,60.0000,10,1280x720,135,2018.091447,37.282663,43.329607,42.514475,22.919107,16.766681,82.914384,80.087534,35.392800,39.306254,37.270596,43.321643,42.501154,1.486124,3426.10,2.20,20993795740566,8784947602,9030560787239,5862841417,0e100d0259080d9334b46ba436aeb162,
AS,aom,av2,0,A1,BoxingPractice,3840x2160,60.0000,10,1280x720,160,991.788519,35.533915,41.795842,40.839783,19.444069,14.936921,70.037852,67.267207,32.587157,37.726935,35.511574,41.783974,40.825290,1.548104,2558.55,1.42,16537000599607,6636824027,6758864175026,3848276219,971b0d2588b9944fd4ee1d3de4c7281d,
AS,aom,av2,0,A1,BoxingPractice,3840x2160,60.0000,10,1280x720,185,483.227542,33.077304,39.763228,39.001254,15.794644,12.705037,51.713440,49.307559,29.357391,35.590257,33.045641,39.753545,38.992691,1.473906,2083.66,1.16,13335316817157,4876405067,5527106865049,3152523527,f435a4fa7be8c1843bd107359bdb75bc,
AS,aom,av2,0,A1,BoxingPractice,3840x2160,60.0000,10,1280x720,210,222.290940,30.088635,37.426706,36.970276,12.212428,10.324887,30.827968,29.055154,25.985459,33.068350,30.053102,37.419694,36.963182,1.472107,1546.18,0.81,10228695208586,3617598986,4116007458723,2244874872,dc35f4cebbf17caf4e718c0feb5cbef9,
AS,aom,av2,0,A1,BoxingPractice,3840x2160,60.0000,10,1280x720,235,99.009913,27.038384,35.591654,35.425584,9.131048,8.169972,10.881299,9.819985,22.898742,30.680943,27.005693,35.586053,35.418300,1.245590,958.49,0.67,6240839282097,2571302148,2549726046900,1867652645,7b084b91582d7df779d7de294a6343bf,
AS,aom,av2,0,A1,BoxingPractice,3840x2160,60.0000,10,960x540,110,2834.500884,36.142914,43.292982,42.383290,24.397704,16.332414,78.224833,75.506818,33.605790,39.099458,36.138084,43.287404,42.373237,1.458915,2419.43,1.42,18456640543245,6752831535,8287377924845,4905758578,7d2e7fa516a08316c6ccfac903084f05,
AS,aom,av2,0,A1,BoxingPractice,3840x2160,60.0000,10,960x540,135,1454.038884,35.352531,42.354144,41.418397,21.483320,15.296090,70.367435,67.591061,32.364959,38.169898,35.342971,42.346895,41.406748,1.516801,2005.89,1.04,13300965846643,5552395276,5674111362490,3011695051,f8f554d5669bfcc5e70980678bad4545,
AS,aom,av2,0,A1,BoxingPractice,3840x2160,60.0000,10,960x540,160,718.144625,33.858936,40.889583,39.985021,17.954120,13.662889,56.610650,54.023228,30.308580,36.666025,33.839640,40.879714,39.972799,1.571217,1518.94,0.91,10007875762769,4291540864,4309179932583,2636647108,5832244283f074a0d00c05228a5fdee2,
AS,aom,av2,0,A1,BoxingPractice,3840x2160,60.0000,10,960x540,185,349.706908,31.645020,38.966380,38.235949,14.367918,11.620876,38.619543,36.576750,27.656926,34.582077,31.615564,38.956050,38.226696,1.610161,1228.67,0.56,7801421535633,3085256784,3256797037603,1517493444,c5af250f05b601de204eb794da2dcda6,
AS,aom,av2,0,A1,BoxingPractice,3840x2160,60.0000,10,960x540,210,161.461923,28.859276,36.713696,36.384298,11.004625,9.445409,20.364103,18.966546,24.688560,32.144496,28.826115,36.703804,36.377397,1.520594,937.93,0.54,5972422444165,2275941068,2495529410472,1466992300,c7c61365d02ae03b903e9a0a94d3b57c,
AS,aom,av2,0,A1,BoxingPractice,3840x2160,60.0000,10,960x540,235,73.569507,25.917710,34.930425,34.983327,8.082003,7.445986,2.378572,1.985803,21.824848,29.603333,25.883506,34.927091,34.974377,1.245608,593.60,0.40,4010703247454,1568140031,1701269907631,1174536979,b032b501a82d9819da739b8f0ceb1a53,
AS,aom,av2,0,A1,BoxingPractice,3840x2160,60.0000,10,640x360,110,1682.511950,33.167402,41.856405,40.924402,21.159305,13.751018,52.298390,50.101628,29.163189,37.203713,33.164049,41.851116,40.916108,1.487678,1481.82,0.73,8701893922684,3357884481,3882875451760,1911585531,a92290e39c2db907ce3169dbb3692a11,
AS,aom,av2,0,A1,BoxingPractice,3840x2160,60.0000,10,640x360,135,881.775455,32.602888,41.008413,40.086064,18.636967,12.990589,44.659456,42.532470,28.509881,36.379698,32.596385,41.001167,40.076741,1.553270,1036.89,0.55,6361059744423,2807456875,2721353327748,1454756561,60ab3470b4b7b5a456135cc23bbf28a5,
AS,aom,av2,0,A1,BoxingPractice,3840x2160,60.0000,10,640x360,160,441.660493,31.466708,39.653178,38.819180,15.511334,11.742176,32.834761,30.986330,27.270562,35.024516,31.451853,39.643757,38.809180,1.591984,743.28,0.38,4878387634624,2163686520,2102087382438,1094286683,6e81be8f4500380d0f43a6250d1e89e4,
AS,aom,av2,0,A1,BoxingPractice,3840x2160,60.0000,10,640x360,185,216.337509,29.620578,37.833748,37.222659,12.297753,10.079617,18.626292,17.343569,25.371862,33.082402,29.595394,37.824693,37.215256,1.615268,545.09,0.28,3716653130021,1437933270,1546953646947,798011091,491141090a008789afb704ac34216495,
AS,aom,av2,0,A1,BoxingPractice,3840x2160,60.0000,10,640x360,210,101.462845,27.131821,35.827645,35.593076,9.281586,8.243427,5.361508,4.712451,22.962786,30.845033,27.099571,35.822483,35.587068,1.598383,417.86,0.19,2735032241328,946487714,1109370744188,505756455,89b31625106c07a6fdc88cd38395d7ad,
AS,aom,av2,0,A1,BoxingPractice,3840x2160,60.0000,10,640x360,235,48.354107,24.391721,34.051827,34.242398,6.767176,6.531037,0.000000,0.000000,20.409447,28.206892,24.354577,34.047786,34.239924,1.269421,285.65,0.14,1920297928251,645719512,765042631990,363176705,ca2da6782267d30595bfb6f4c1913ba4,
AS,aom,av2,0,A1,Crosswalk,3840x2160,60.0000,10,3840x2160,110,18521.120725,42.682087,48.556469,51.973007,28.065725,19.920584,94.612509,92.828951,42.886510,43.543357,42.638320,48.539247,51.958964,0.318196,26234.74,18.58,164760364920586,78181026578,68569592039760,51248065779,b29d9fa82ac4e8aae4ff5fd9f4d6c1fd,
AS,aom,av2,0,A1,Crosswalk,3840x2160,60.0000,10,3840x2160,135,6030.228233,41.920582,47.736639,50.839393,25.320894,18.936279,88.846594,86.965076,41.138706,42.786677,41.907799,47.727855,50.826525,0.297417,19609.27,12.61,154651323261097,65125364082,66986559937981,45638003204,d3fc57844d5c8114d5093d6ed2d4ee1a,
AS,aom,av2,0,A1,Crosswalk,3840x2160,60.0000,10,3840x2160,160,2625.120111,40.692649,46.505835,49.184959,21.867835,17.515379,78.255679,76.364259,38.761397,41.639999,40.662989,46.493024,49.163869,0.274310,13636.79,12.54,85125718748475,51171375317,35799497009289,34858409198,0674a4d2f3f04152cb8421e1c512edeb,
AS,aom,av2,0,A1,Crosswalk,3840x2160,60.0000,10,3840x2160,185,1268.674710,38.851532,44.785048,46.995639,18.220129,15.666244,62.308015,60.407715,35.964436,39.983861,38.796042,44.768349,46.967347,0.306275,8436.63,10.31,51129471663592,41774101003,22219955232511,28388295773,5cc91cfc4f86d4f27952aaedfac5e63d,
AS,aom,av2,0,A1,Crosswalk,3840x2160,60.0000,10,3840x2160,210,607.711058,36.278943,42.529458,44.205726,14.489988,13.403736,41.915930,40.190284,32.785184,37.648332,36.200689,42.505531,44.163490,0.387383,5179.39,8.49,32751150304006,34831605443,14734968300134,25259546354,020a7178ff595f8d8a9b67dba1fde233,
AS,aom,av2,0,A1,Crosswalk,3840x2160,60.0000,10,3840x2160,235,296.734650,33.290270,39.909169,40.990637,11.127345,11.080955,22.122273,20.922214,29.560597,34.851195,33.200963,39.881820,40.940379,0.567184,3311.65,7.57,21820477772238,30672904260,8856519739397,20847988690,dc37c81580779763359c32fffb123f8c,
AS,aom,av2,0,A1,Crosswalk,3840x2160,60.0000,10,2560x1440,110,8916.720203,42.268324,48.128095,51.420119,26.594695,19.393140,92.083671,90.059963,41.951775,43.139027,42.255717,48.117714,51.408250,0.341421,11096.73,8.56,67325522352053,34862556454,29076570703025,23500903674,f8b32ab5747b3914355f46de9c771255,
AS,aom,av2,0,A1,Crosswalk,3840x2160,60.0000,10,2560x1440,135,3570.944748,41.354933,47.201213,50.126637,23.615927,18.267597,84.563250,82.426996,39.974393,42.273390,41.336446,47.191176,50.109578,0.350490,10441.74,7.51,63433719687894,30227879824,27329311587157,20865192500,7f7cbb8f46a35a59b752c12ce9a84bd7,
AS,aom,av2,0,A1,Crosswalk,3840x2160,60.0000,10,2560x1440,160,1651.704603,39.830065,45.767820,48.228062,20.023308,16.634347,71.315694,69.233760,37.375747,40.905410,39.788882,45.752068,48.200311,0.339931,5782.93,5.73,38915457697745,24032168276,16351998232446,17032177497,64c058cf9259bc5562718f678a034297,
AS,aom,av2,0,A1,Crosswalk,3840x2160,60.0000,10,2560x1440,185,790.345654,37.679878,43.913892,45.950863,16.386778,14.625908,52.949190,51.059997,34.463774,39.024996,37.610888,43.894805,45.915955,0.367039,4009.50,4.55,25374274200876,19317957335,10571707891209,12554111753,4bdc189ef0242a67bc1c84154796bae0,
AS,aom,av2,0,A1,Crosswalk,3840x2160,60.0000,10,2560x1440,210,376.652271,34.894846,41.699803,43.164327,12.859327,12.346332,31.308674,29.881620,31.286841,36.578260,34.806184,41.675323,43.123574,0.472953,2698.05,4.18,16846878283190,16176999097,7108547345855,11583094307,5c085cdd964f1c643c1507f2c6c5f730,
AS,aom,av2,0,A1,Crosswalk,3840x2160,60.0000,10,2560x1440,235,183.689541,31.854035,39.006044,40.218353,9.816110,10.151376,12.904100,12.016763,28.140422,33.626800,31.760406,38.972466,40.179958,0.617512,1776.47,3.57,11053694953620,13581314846,4717289834964,9895318752,211812ae7178f4433adb2cad4aa453bd,
AS,aom,av2,0,A1,Crosswalk,3840x2160,60.0000,10,1920x1080,110,5746.750480,41.923801,47.768473,50.946360,25.418844,18.957155,89.577792,87.373457,41.169085,42.812196,41.912242,47.759248,50.932336,0.388755,6230.54,5.01,37636573160394,20871033862,16330019348457,13581341680,b1625e0401a4f5ddd5d5e8a7c7d2afe7,
AS,aom,av2,0,A1,Crosswalk,3840x2160,60.0000,10,1920x1080,135,2584.899408,40.850440,46.725252,49.516488,22.305175,17.710320,80.617650,78.310170,39.041920,41.824794,40.825507,46.713408,49.495866,0.413440,6096.37,4.33,36829575789662,18126299860,15957119575858,11879891363,2974d948d16ef8da51910cc17827d8b8,
AS,aom,av2,0,A1,Crosswalk,3840x2160,60.0000,10,1920x1080,160,1200.896334,39.099992,45.211459,47.555674,18.674412,15.932279,65.641825,63.446376,36.322092,40.309066,39.050327,45.194709,47.526518,0.432689,3871.20,3.84,24248821443358,14331055276,10168475481730,10549304273,37116b10fc10548d64f4b29083760806,
AS,aom,av2,0,A1,Crosswalk,3840x2160,60.0000,10,1920x1080,185,572.307692,36.753950,43.329001,45.174342,15.112183,13.846507,45.696373,43.904566,33.366578,38.321633,36.677851,43.309198,45.138622,0.470582,2749.50,2.91,16654553689562,11284216164,7238080848183,7996669836,428f2e9f213a8170cb6bfd309438b257,
AS,aom,av2,0,A1,Crosswalk,3840x2160,60.0000,10,1920x1080,210,268.402367,33.857479,41.007497,42.425087,11.748642,11.594157,24.159615,22.966484,30.204638,35.754668,33.768435,40.985544,42.377319,0.566857,1794.84,2.43,11240061147735,9294196009,4721332198905,6582142660,1713ed051058d2cdc53954548ad69ac0,
AS,aom,av2,0,A1,Crosswalk,3840x2160,60.0000,10,1920x1080,235,130.097595,30.792562,38.629508,39.517598,8.939752,9.504958,6.884585,6.260091,27.113357,32.909442,30.700859,38.598443,39.470372,0.718606,1123.09,1.80,7242046871164,7770638305,2970138534788,4953308860,d2ff4f14e7bbf48163dd19accdea63d8,
AS,aom,av2,0,A1,Crosswalk,3840x2160,60.0000,10,1280x720,110,3409.409052,41.289104,47.152033,50.139923,23.678523,18.231899,84.249580,81.826134,39.873561,42.254476,41.272953,47.140830,50.121233,0.428727,3875.68,2.15,23408570449436,10480599778,10141850050125,5798947092,0b0e5af0b4ec5f043d78f86bca2577d4,
AS,aom,av2,0,A1,Crosswalk,3840x2160,60.0000,10,1280x720,135,1642.033044,39.955172,45.953973,48.541513,20.385335,16.788971,72.834117,70.401306,37.569010,41.075507,39.919431,45.939798,48.514969,0.471173,2954.80,1.79,18482321162957,9070850721,7732967476262,4874913787,c9a592c2d0911b5c6c6e31a9c77f5873,
AS,aom,av2,0,A1,Crosswalk,3840x2160,60.0000,10,1280x720,160,764.363022,37.889376,44.267472,46.326360,16.740610,14.842944,55.153811,53.020714,34.731397,39.311388,37.827888,44.247064,46.288598,0.504605,2132.33,1.48,13343874574527,7071219863,5588644422738,4000244394,c26abf96bf00590d9779612fbac03b15,
AS,aom,av2,0,A1,Crosswalk,3840x2160,60.0000,10,1280x720,185,363.782679,35.291962,42.278796,43.849458,13.326306,12.699236,33.954790,32.457614,31.735321,37.090018,35.206140,42.257444,43.805497,0.593239,1556.01,1.18,9628881103053,5334454744,4089308136407,3176600771,2b6d05de0307c731b0c1681d8ac3b5bb,
AS,aom,av2,0,A1,Crosswalk,3840x2160,60.0000,10,1280x720,210,168.525628,32.287386,39.959228,41.154578,10.257864,10.519815,14.618037,13.773439,28.616577,34.419517,32.195896,39.929087,41.111021,0.669126,1008.38,0.91,6718482624647,4268743062,2848348492435,2659186201,55f340b4562058178cd7465478825a68,
AS,aom,av2,0,A1,Crosswalk,3840x2160,60.0000,10,1280x720,235,81.370937,29.274193,37.512280,38.298241,7.825299,8.648613,2.545334,2.304866,25.639800,31.615833,29.186814,37.483768,38.240286,0.857441,631.69,0.81,4192818181752,3535980997,1787190368293,2394549715,87940255d35c461d87938c8aeebe5c49,
AS,aom,av2,0,A1,Crosswalk,3840x2160,60.0000,10,960x540,110,2442.813802,40.639874,46.612043,49.446224,22.297044,17.547090,77.769787,75.258182,38.665130,41.739169,40.617166,46.598514,49.422573,0.466753,2894.00,1.43,17024750877930,6549673222,7555658450717,3850116226,fc9fb6f7fd3f2327a54fd82b1acfa5b9,
AS,aom,av2,0,A1,Crosswalk,3840x2160,60.0000,10,960x540,135,1199.940982,39.162090,45.347756,47.779836,18.970680,16.025552,65.128291,62.660028,36.386051,40.441725,39.119413,45.330383,47.749870,0.519744,1915.14,1.22,11854833564004,5692292505,5388592489690,3551508556,05f4d4fb157e8825ebe5b1457885e421,
AS,aom,av2,0,A1,Crosswalk,3840x2160,60.0000,10,960x540,160,563.499270,36.932301,43.625932,45.525046,15.405926,14.028823,46.299165,44.312527,33.573760,38.536323,36.863728,43.606820,45.489603,0.584493,1375.56,0.79,8561264455156,4435799090,3604433893447,2155955515,a7b6203530783e14108736c6124de93d,
AS,aom,av2,0,A1,Crosswalk,3840x2160,60.0000,10,960x540,185,266.742488,34.233264,41.582534,42.996977,12.176732,11.913821,25.818528,24.551777,30.610605,36.207643,34.148372,41.561044,42.957513,0.712625,1047.70,0.66,6156331322880,3207806741,2750989794451,1773662026,0471734a6ec8727b03459e5af1284845,
AS,aom,av2,0,A1,Crosswalk,3840x2160,60.0000,10,960x540,210,124.524091,31.207441,39.306822,40.323738,9.306721,9.822195,7.550610,7.002559,27.551869,33.470827,31.120293,39.280580,40.254727,0.810946,733.98,0.53,4244918139090,2467170491,1929069464604,1421432952,ade01ed5660b79452ddfb112a53a15dc,
AS,aom,av2,0,A1,Crosswalk,3840x2160,60.0000,10,960x540,235,61.577807,28.174464,36.966307,37.681740,7.125363,8.089144,0.460103,0.380575,24.586889,30.679082,28.090761,36.931384,37.628590,0.998094,434.16,0.41,2746178556926,1968649769,1228431119833,1187877868,55ec7d230661bb32b768bc3a549c54a4,
AS,aom,av2,0,A1,Crosswalk,3840x2160,60.0000,10,640x360,110,1505.594713,39.345937,45.739425,48.329017,20.132152,16.337650,62.296011,59.963311,36.525294,40.837521,39.308428,45.721238,48.298570,0.488174,1506.47,0.69,8997626907909,3488402017,3933423217901,1827678362,8ada6cd7134b71f7619c380ea8abe499,
AS,aom,av2,0,A1,Crosswalk,3840x2160,60.0000,10,640x360,135,755.019749,37.759395,44.364759,46.542046,16.903175,14.800165,49.078662,46.828569,34.490270,39.370028,37.705120,44.344846,46.509060,0.570283,1055.38,0.54,6505489758535,2937692269,2759176232825,1461906593,e428eed37512b28ee871ef37da6b292d,
AS,aom,av2,0,A1,Crosswalk,3840x2160,60.0000,10,640x360,160,358.692385,35.394809,42.556599,44.189174,13.577155,12.822461,30.508919,28.907145,31.823423,37.280102,35.318204,42.533507,44.141954,0.693052,750.55,0.49,4586467233067,2322793098,1963416345266,1335986208,ddaad0cc7ee53eeff73460db4a8814e3,
AS,aom,av2,0,A1,Crosswalk,3840x2160,60.0000,10,640x360,185,169.945747,32.581205,40.473164,41.647553,10.574897,10.762967,12.388637,11.579338,28.923477,34.781452,32.496445,40.447233,41.592891,0.822348,490.90,0.26,3147123440358,1533984681,1287600030595,698060205,df35676b7a8f13ed58a1ba656061a9bb,
AS,aom,av2,0,A1,Crosswalk,3840x2160,60.0000,10,640x360,210,79.364328,29.566416,37.935094,38.964080,8.082784,8.873383,1.238060,1.114696,25.950878,31.940293,29.480586,37.894203,38.893845,1.023103,256.78,0.18,2080653093776,1137414657,882157918689,599034758,6c40a6ac3d4251df5a786516d1b1b12c,
AS,aom,av2,0,A1,Crosswalk,3840x2160,60.0000,10,640x360,235,40.877277,26.563267,35.683364,36.337822,6.220985,7.338008,0.003148,0.000000,23.031688,29.070753,26.484565,35.647841,36.215207,1.091170,177.76,0.13,1373320550105,823654865,610628802147,461783931,9174f4648c29baa201311a5060a1d75f,
AS,aom,av2,0,A1,FoodMarket2,3840x2160,60.0000,10,3840x2160,110,27068.045800,42.912045,48.489405,48.615082,31.849486,22.571435,99.971027,99.962586,44.184421,43.811939,42.818131,48.399073,48.514894,0.015630,25989.96,22.16,172743816662264,76562016148,73752877035550,64302285249,a2b0414e853237fabce9cc079b00e103,
AS,aom,av2,0,A1,FoodMarket2,3840x2160,60.0000,10,3840x2160,135,12171.458080,41.297717,46.318024,46.537372,28.435450,20.559957,99.956761,99.945107,40.810367,42.084317,41.231403,46.235494,46.441328,0.016286,29292.14,16.25,185839618272146,67443406243,77205239386247,44110524710,591fb1cdb3a148e56af0a2478bb0db55,
AS,aom,av2,0,A1,FoodMarket2,3840x2160,60.0000,10,3840x2160,160,5659.488819,38.726495,43.659829,44.010358,23.945110,17.653103,95.233099,93.232782,36.508737,39.645726,38.651466,43.577325,43.913605,0.017953,20195.88,13.04,132856711262623,56351023538,53415593237349,35505066065,2627ae7352f2ec81f40aee6b4c4b0673,
AS,aom,av2,0,A1,FoodMarket2,3840x2160,60.0000,10,3840x2160,185,2679.158380,35.620521,41.027513,41.379949,19.241266,14.405403,77.361902,75.688813,32.238228,36.877826,35.539722,40.944788,41.282021,0.020119,14968.05,11.30,91540509078754,45584435765,39489925707618,31006107181,b9b96ad2d8182f7df8f8566761e93145,
AS,aom,av2,0,A1,FoodMarket2,3840x2160,60.0000,10,3840x2160,210,1200.999616,32.172340,38.397880,38.675283,14.570024,11.101809,51.510768,50.421661,28.122418,33.841460,32.087590,38.318454,38.579840,0.044217,9471.10,9.82,58733218994063,37429345254,24827208903884,26915814762,e7af4a6151131b955e74dc23062c90a6,
AS,aom,av2,0,A1,FoodMarket2,3840x2160,60.0000,10,3840x2160,235,522.621993,28.892529,35.933856,35.921061,10.471373,8.225108,28.548651,28.001732,24.575872,30.847495,28.801567,35.853590,35.817993,0.132442,6134.72,7.95,37412641953194,31063630065,16142376018432,21608335288,84562f018a241bc1987a30aea42dccd5,
AS,aom,av2,0,A1,FoodMarket2,3840x2160,60.0000,10,2560x1440,110,16239.975409,41.968153,47.089054,47.197789,30.009336,21.475194,99.962576,99.951813,42.292480,42.775231,41.898797,46.996600,47.088540,0.017339,13765.35,9.86,84852054229626,38256138804,36408054926445,26466946214,3d24c99ceb4644fc457c6f86b9c96850,
AS,aom,av2,0,A1,FoodMarket2,3840x2160,60.0000,10,2560x1440,135,7810.079152,40.002661,44.797982,45.081716,26.172552,19.103285,99.760264,98.851036,38.564801,40.810753,39.934070,44.706924,44.973042,0.019104,15559.67,7.89,96241179431144,33349319362,40976315456357,21289969822,e07768fac91ba1116c5c830535b1b94b,
AS,aom,av2,0,A1,FoodMarket2,3840x2160,60.0000,10,2560x1440,160,3627.362176,37.127340,42.174721,42.605077,21.489236,15.972304,88.023503,85.730087,34.232196,38.212419,37.048439,42.084010,42.491510,0.022912,11618.63,6.93,74275068146773,27719154182,30716198073836,18913358394,80790351c9bdc28fd91f9369264169f8,
AS,aom,av2,0,A1,FoodMarket2,3840x2160,60.0000,10,2560x1440,185,1673.224007,33.911658,39.684838,40.068285,16.859576,12.736452,66.340413,64.666172,30.135345,35.409497,33.828610,39.592848,39.954113,0.032654,8631.38,5.53,55450424214059,22303047250,22889124392895,15029488738,4726fa1208c8cb544bb0033be977cfed,
AS,aom,av2,0,A1,FoodMarket2,3840x2160,60.0000,10,2560x1440,210,717.886421,30.504412,37.374244,37.465685,12.412424,9.590758,40.341936,39.392482,26.286808,32.439106,30.417151,37.290760,37.359071,0.085956,5685.09,4.03,35702861277406,17218095480,14930824668072,10934688389,f7ba9a4815899113e1722213eadda60e,
AS,aom,av2,0,A1,FoodMarket2,3840x2160,60.0000,10,2560x1440,235,300.094982,27.373709,35.083443,34.898783,8.613088,6.982140,20.034320,19.725764,23.051633,29.565581,27.286959,35.004552,34.791394,0.168555,3291.67,3.39,21739651629402,14485370580,9281549186285,9839802399,7daa70c1f28477b06652e3f59ac49352,
AS,aom,av2,0,A1,FoodMarket2,3840x2160,60.0000,10,1920x1080,110,11750.616153,40.897649,45.781645,45.947451,28.413004,20.393930,99.951197,99.936411,40.573964,41.755086,40.820434,45.680517,45.813078,0.017924,8443.77,5.59,54789476043940,24153632804,23944756894182,16013138173,aaff86d91e4e5b23fd9bcf382f799de8,
AS,aom,av2,0,A1,FoodMarket2,3840x2160,60.0000,10,1920x1080,135,5738.499039,38.798671,43.565464,43.910915,24.399122,17.864555,97.425044,94.588118,36.781881,39.708090,38.723281,43.466938,43.781339,0.021184,10174.25,4.77,64235319739790,20306157094,26736250293192,12800240373,0fb44faee6d104fe6960fa86819baeec,
AS,aom,av2,0,A1,FoodMarket2,3840x2160,60.0000,10,1920x1080,160,2637.783140,35.848625,41.098182,41.537585,19.708997,14.698808,81.287797,78.714448,32.561295,37.102636,35.764730,40.999065,41.410454,0.026522,7460.21,3.89,49829374119608,16727012081,21161933804829,11288908589,d3f1807a113f1648de0722918e066222,
AS,aom,av2,0,A1,FoodMarket2,3840x2160,60.0000,10,1920x1080,185,1191.774379,32.624178,38.803807,39.134153,15.189924,11.533485,57.060847,55.503750,28.638334,34.316625,32.537854,38.709413,39.015248,0.059429,6018.47,3.54,37301299622851,13246601940,15912099662702,9576679727,c909da87337ad2ebb8e07ee3ca408864,
AS,aom,av2,0,A1,FoodMarket2,3840x2160,60.0000,10,1920x1080,210,495.038500,29.317776,36.613158,36.656072,10.954778,8.571416,32.524462,31.767893,25.031524,31.406735,29.228166,36.532062,36.539750,0.133513,3990.67,2.14,25021547736565,9791844595,10503560123495,5803339619,ecf8ab47023c983d90259383561d4ed9,
AS,aom,av2,0,A1,FoodMarket2,3840x2160,60.0000,10,1920x1080,235,198.207946,26.330698,34.425685,34.186554,7.395754,6.187217,15.025397,14.884292,22.041974,28.610741,26.242974,34.334994,34.076484,0.207886,2323.81,2.13,14470567789739,8184697586,6083426482195,5702998430,f547e8fe66f48a3a831f33066d40145f,
AS,aom,av2,0,A1,FoodMarket2,3840x2160,60.0000,10,1280x720,110,7361.318067,38.353641,43.659905,43.982831,25.793874,18.114614,97.278039,94.486705,36.709310,39.747939,38.198069,43.542846,43.810473,0.015574,6661.79,2.95,39438171205418,12889475410,17504755008071,7833678643,5acd6aee17945cb9747bfc34838ddb7e,
AS,aom,av2,0,A1,FoodMarket2,3840x2160,60.0000,10,1280x720,135,3618.638592,36.528646,41.761078,42.143039,21.753146,15.763953,86.724801,83.875324,33.701839,37.859152,36.411940,41.652710,41.994135,0.022497,5466.60,2.21,36745942385486,10403365823,15427247032219,6290311986,af5aea24faf18d62fc5394dbe87878cf,
AS,aom,av2,0,A1,FoodMarket2,3840x2160,60.0000,10,1280x720,160,1651.236148,33.850049,39.610640,39.986957,17.205037,12.822334,67.391031,65.050254,30.113290,35.421198,33.752596,39.506607,39.845293,0.039121,4557.41,1.83,29241709976682,8386733414,11977465484964,4851344283,4f411821f9acffcf9848d567fff9dc19,
AS,aom,av2,0,A1,FoodMarket2,3840x2160,60.0000,10,1280x720,185,726.550987,30.818399,37.634616,37.800688,12.923345,9.909097,43.328275,42.034638,26.624786,32.788501,30.726979,37.535622,37.671542,0.104550,3171.62,1.32,21545444200286,6323642824,9005237729536,3789354767,42ab96ed5b7cd9ada6e4a14cba3d576f,
AS,aom,av2,0,A1,FoodMarket2,3840x2160,60.0000,10,1280x720,210,290.006609,27.701583,35.620685,35.487080,9.021365,7.256554,22.081389,21.674658,23.390562,29.991908,27.609012,35.531626,35.369078,0.203891,2382.57,0.98,15097620329533,4555289183,6293273554333,2632776764,7a5b05ce5cabeb314c7aa90b75e3bdad,
AS,aom,av2,0,A1,FoodMarket2,3840x2160,60.0000,10,1280x720,235,113.122570,24.920067,33.570428,33.162735,5.855914,5.197707,9.920702,9.948999,20.718466,27.363319,24.832328,33.472235,33.055383,0.277951,1350.82,0.77,8512787129006,3738975046,3536621535861,2045632734,1ff6c5719d7974c3d38dafe0d3bf5dc5,
AS,aom,av2,0,A1,FoodMarket2,3840x2160,60.0000,10,960x540,110,5229.823715,35.908789,42.125468,42.520632,23.911677,15.714662,85.604642,83.015745,32.900061,37.921385,35.682109,41.993087,42.327193,0.014892,5448.34,1.93,32374552034967,8363895513,14263155208611,5084255772,b13f1c2f023bb2e9f8aeff0ae04ff9aa,
AS,aom,av2,0,A1,FoodMarket2,3840x2160,60.0000,10,960x540,135,2578.477522,34.497527,40.509948,40.909005,19.840649,13.869468,73.686872,71.157889,30.926461,36.300698,34.334356,40.397617,40.750948,0.026783,3908.96,1.38,24246171247172,6503749459,10243824319519,3652505161,ae0a9a99b78297d60d4732fd43fac785,
AS,aom,av2,0,A1,FoodMarket2,3840x2160,60.0000,10,960x540,160,1170.900484,32.253436,38.634645,38.949962,15.431334,11.383762,54.150932,52.210630,28.192728,34.147590,32.135474,38.525458,38.810378,0.058134,2980.36,1.08,18424552867948,5094859600,7824127768062,2901971923,537b1e93525ed413b9dd5d7a75f6eda4,
AS,aom,av2,0,A1,FoodMarket2,3840x2160,60.0000,10,960x540,185,507.063398,29.519461,36.825113,36.902855,11.397000,8.794804,32.487699,31.564021,25.217635,31.670582,29.417431,36.721897,36.772756,0.143005,2111.33,0.75,13286894329779,3833846252,5559790930438,2000108843,034d80742de3bada545afc79d1f4e0a8,
AS,aom,av2,0,A1,FoodMarket2,3840x2160,60.0000,10,960x540,210,198.702221,26.611617,34.844333,34.645223,7.740070,6.403037,15.509825,15.330423,22.316025,28.976377,26.518573,34.749864,34.534708,0.246927,1407.75,0.46,9075422952905,2663615469,3718527281651,1225021644,4c72de0213edecd9a2208e925b829542,
AS,aom,av2,0,A1,FoodMarket2,3840x2160,60.0000,10,960x540,235,77.881503,23.972737,33.080438,32.409296,4.925757,4.596158,6.296089,6.435046,19.849242,26.491352,23.889325,32.998361,32.318397,0.333808,838.57,0.37,5344351848425,2174511819,2207396089555,936098842,a110a445e3646c398e00e4923a2c8343,
AS,aom,av2,0,A1,FoodMarket2,3840x2160,60.0000,10,640x360,110,2961.614386,32.580191,40.171372,40.537058,19.747327,12.402857,59.026502,57.093730,28.353936,35.287587,32.288987,40.034823,40.339831,0.014604,2609.82,0.84,16775207666691,4259409478,7345729642492,2357923764,b8a186fecf3724fe3891f84d938e1c12,
AS,aom,av2,0,A1,FoodMarket2,3840x2160,60.0000,10,640x360,135,1470.032736,31.649367,38.927060,39.229944,16.570232,11.212862,48.036956,46.335500,27.318031,34.075523,31.431033,38.810871,39.071552,0.032291,2057.08,0.63,12780502539401,3230318824,5387049734388,1675297049,7e6a0bdfd955ebb5b8b765dd28ea6cb9,
AS,aom,av2,0,A1,FoodMarket2,3840x2160,60.0000,10,640x360,160,679.052640,29.988239,37.318276,37.512894,12.833391,9.404518,32.939651,31.813637,25.588542,32.288446,29.841935,37.204948,37.372638,0.112073,1423.49,0.49,8955607483824,2638717152,3735366519249,1311372704,ec49f10e4a7aef0e1647880eed8f2dbb,
AS,aom,av2,0,A1,FoodMarket2,3840x2160,60.0000,10,640x360,185,296.185046,27.720863,35.737781,35.657043,9.278287,7.327748,18.454319,18.090122,23.355778,30.098595,27.614119,35.641955,35.529169,0.228371,981.39,0.41,6211126943613,2214136365,2581880529797,1070397643,f3105909ec2aff24acd07367e26bd09a,
AS,aom,av2,0,A1,FoodMarket2,3840x2160,60.0000,10,640x360,210,113.974641,25.111447,33.851094,33.434364,6.078109,5.335887,8.311265,8.393954,20.897534,27.604295,25.023860,33.760294,33.331412,0.346304,652.10,0.24,4214381507750,1260722140,1720507564933,599740709,05288c55eb60f183b710e194f4005c97,
AS,aom,av2,0,A1,FoodMarket2,3840x2160,60.0000,10,640x360,235,46.594636,22.717601,32.187646,31.469635,3.854942,3.912771,3.979422,4.143359,18.716865,25.298240,22.640749,32.075524,31.384966,0.418629,374.68,0.16,2610842125426,961048275,1064266587574,442584527,14994e8f69c8fa8a7ac52c2eb8503eb0,
AS,aom,av2,0,A1,Neon1224,3840x2160,30.0000,10,3840x2160,110,38304.735880,44.275812,48.130700,47.445626,27.670491,22.031829,99.976801,99.971024,43.105611,46.213803,44.183745,48.000426,47.301909,1.059573,20606.14,28.52,144938292864016,152765186079,70277294866862,102250499151,7ad3f3be48e22d3da8aa193cd3a292b2,
AS,aom,av2,0,A1,Neon1224,3840x2160,30.0000,10,3840x2160,135,17408.498578,41.030444,45.220391,44.364614,23.434940,19.262530,98.835673,97.782670,39.167290,43.492300,40.904646,45.140247,44.253332,1.249523,27658.88,24.09,173032638708590,122660718595,77591164756144,71479218084,b8c8e2089fec7241a7293983ad60c215,
AS,aom,av2,0,A1,Neon1224,3840x2160,30.0000,10,3840x2160,160,7901.590102,37.935610,42.006493,40.946838,19.753100,16.687142,88.117462,85.776331,35.079845,40.770575,37.802204,41.901029,40.793725,1.379727,22744.68,20.19,134506680281413,99026592552,59363793289539,56236572608,b8b8b455fb2de607504633f12337fbe3,
AS,aom,av2,0,A1,Neon1224,3840x2160,30.0000,10,3840x2160,185,3634.779989,34.745242,38.717609,37.360273,16.142715,14.080487,68.742048,66.485801,31.023049,37.830110,34.597838,38.577182,37.148641,1.509273,18467.59,16.42,109499182928243,78481147319,48272274181501,46097656896,5e5ac37f02f460e939353bc293784fa3,
AS,aom,av2,0,A1,Neon1224,3840x2160,30.0000,10,3840x2160,210,1584.560670,31.419642,35.334892,33.613492,12.550202,11.445735,44.816653,43.094544,27.099548,34.570291,31.273477,35.170590,33.360294,1.669285,12859.94,12.94,79984673808114,58380463568,33716346271672,36667348347,e9fb4cbfcef227f09bb20803461d0075,
AS,aom,av2,0,A1,Neon1224,3840x2160,30.0000,10,3840x2160,235,662.905710,28.298814,32.053291,29.997950,9.439771,9.117224,22.964508,21.891035,23.687236,31.199145,28.170653,31.876671,29.713958,1.868221,7166.74,9.36,53811902710039,43695493591,24624260614216,34552569682,b7f9d56d3986f68b8e8ff489b62aaa76,
AS,aom,av2,0,A1,Neon1224,3840x2160,30.0000,10,2560x1440,110,22866.800891,41.832896,46.502751,45.694504,25.078792,20.311741,99.798449,99.357193,40.782339,44.536325,41.780306,46.418610,45.585924,1.203469,25396.42,15.91,145627682509985,79609614469,66579349217706,43193924727,de5c0cb16d8ef909ca8725ed7ee078ff,
AS,aom,av2,0,A1,Neon1224,3840x2160,30.0000,10,2560x1440,135,10771.789441,39.204454,43.617217,42.608416,21.408356,17.867735,94.240159,92.289536,36.971053,42.075904,39.110715,43.532010,42.484164,1.352147,22542.48,11.43,162272593835832,63343496684,77015664678154,40880247123,c04bf2e15998c29ae8ae362f19c4411d,
AS,aom,av2,0,A1,Neon1224,3840x2160,30.0000,10,2560x1440,160,4955.591485,36.196349,40.409958,39.184915,17.814265,15.314022,78.405589,75.943617,32.894013,39.338145,36.069778,40.290968,39.010149,1.431256,20508.22,9.54,130116780171621,49701255781,57606704446067,28187430276,f16f47601995ae14484b412dbf0f9074,
AS,aom,av2,0,A1,Neon1224,3840x2160,30.0000,10,2560x1440,185,2237.769000,33.010739,37.162153,35.639735,14.275058,12.729637,56.949486,54.821214,28.960959,36.370601,32.866340,37.012210,35.411593,1.490377,17558.44,7.12,105936065320844,37271902688,45788469185402,19802048087,63ad39ff94b614aa2e1062a7c54967db,
AS,aom,av2,0,A1,Neon1224,3840x2160,30.0000,10,2560x1440,210,940.915085,29.822078,33.930546,31.989065,10.940882,10.268872,32.664393,31.305329,25.338967,33.240792,29.691169,33.766792,31.721333,1.638578,12453.41,5.82,75294742769999,26634592671,32527314207041,16390449334,56318edec624d2cdb5f1e320026a0314,
AS,aom,av2,0,A1,Neon1224,3840x2160,30.0000,10,2560x1440,235,378.496580,26.811836,30.923622,28.640916,8.148929,8.140989,12.570673,11.889865,22.190234,30.097329,26.695448,30.755490,28.355906,1.824822,5074.74,4.73,30749967819780,19541249792,13326023198334,13415325794,e73798e4e39f464894e56ffb54f59fe9,
AS,aom,av2,0,A1,Neon1224,3840x2160,30.0000,10,1920x1080,110,16222.465534,40.294028,45.367740,44.435291,23.484310,19.246279,98.322955,96.943241,39.163182,43.457147,40.253566,45.292089,44.331818,1.381400,11074.93,10.98,62052238152452,52593505355,29038716267012,29616281017,9f1cdec455a42450ad43e17c3b8836e6,
AS,aom,av2,0,A1,Neon1224,3840x2160,30.0000,10,1920x1080,135,7812.613233,37.886567,42.426534,41.285380,20.019802,16.889388,88.325056,85.974893,35.372036,41.049011,37.804363,42.329259,41.143405,1.499863,13123.03,8.30,78707975882923,41057367776,36946801153536,24195910311,9424acb9ac13c948afeb2a30c60054cf,
AS,aom,av2,0,A1,Neon1224,3840x2160,30.0000,10,1920x1080,160,3571.022209,34.895904,39.213816,37.846038,16.425507,14.311472,70.032136,67.635516,31.317090,38.260097,34.772259,39.083713,37.651834,1.576503,10929.52,7.11,63322734985260,31174485037,28535040826923,19517521374,eee8572f3e485427d40b71cb723c363a,
AS,aom,av2,0,A1,Neon1224,3840x2160,30.0000,10,1920x1080,185,1576.536079,31.763921,36.017899,34.331323,12.953645,11.769617,47.781141,45.870995,27.528574,35.295591,31.625048,35.860584,34.089516,1.720729,8561.71,5.22,50184065960130,22249948951,22337968156954,14466440550,fb8b887f9d84f3e192a8716c9b5c9a5e,
AS,aom,av2,0,A1,Neon1224,3840x2160,30.0000,10,1920x1080,210,645.220626,28.706075,32.923323,30.844630,9.882369,9.478258,24.247875,23.174984,24.155937,32.237224,28.584142,32.761067,30.573688,1.635249,8518.20,4.01,52298920213145,15510412980,22221247874152,11147682493,cc53afb4fd18c9414ad8c97a49b0926c,
AS,aom,av2,0,A1,Neon1224,3840x2160,30.0000,10,1920x1080,235,248.190579,25.792601,30.132494,27.726174,7.323917,7.505608,6.348388,5.975116,21.200580,29.219864,25.683899,29.969035,27.452323,1.758258,3315.34,2.79,20383831568917,11070329594,8693612327215,7706970823,5176d79e91aa8fc5f18904e85c1fdfee,
AS,aom,av2,0,A1,Neon1224,3840x2160,30.0000,10,1280x720,110,9914.784907,37.541265,43.296140,42.050146,21.474489,17.604702,89.698864,87.309587,35.729641,41.644265,37.511680,43.232916,41.964260,1.525975,8188.15,6.20,44806787035131,28113531719,21509919293800,16584975778,516fa437b0d8007dfd39efce93ecdfa7,
AS,aom,av2,0,A1,Neon1224,3840x2160,30.0000,10,1280x720,135,4854.783370,35.621597,40.447107,39.091793,18.088257,15.377477,75.346550,72.931181,32.575412,39.361976,35.562706,40.343164,38.942730,1.625878,8483.25,4.62,47640142739358,21675457988,22203903368229,12433095611,89ee8b2529048040554567c9270994f0,
AS,aom,av2,0,A1,Neon1224,3840x2160,30.0000,10,1280x720,160,2187.469146,32.938611,37.361428,35.761976,14.516208,12.875904,55.549768,53.457218,28.976893,36.602954,32.836315,37.226694,35.558309,1.722328,5320.89,3.06,39725832080986,15947502348,18146704877689,10837061221,4ae082378aa04eac0bdd0675fe536964,
AS,aom,av2,0,A1,Neon1224,3840x2160,30.0000,10,1280x720,185,944.256974,30.061367,34.383057,32.451942,11.274561,10.517408,33.942513,32.488821,25.623689,33.741879,29.941698,34.227194,32.203034,1.866828,5197.40,2.21,31402436413779,10594065099,13556222082317,6064624345,fede55407ecce548fe7ea63411b0443d,
AS,aom,av2,0,A1,Neon1224,3840x2160,30.0000,10,1280x720,210,371.956659,27.159601,31.563156,29.268695,8.494106,8.420314,12.990745,12.332595,22.571211,30.799513,27.050096,31.405690,28.997216,1.769154,3792.35,1.27,30226310710905,7012038330,12914897263677,4556614490,4c2c4d45ff5bd9a49f445f63da5238d9,
AS,aom,av2,0,A1,Neon1224,3840x2160,30.0000,10,1280x720,235,135.056943,24.400382,29.109711,26.517328,6.297243,6.679780,1.947657,1.853261,19.885849,28.013574,24.303010,28.952583,26.240626,1.808611,1797.62,1.06,11246406121294,4934575378,4706227903644,2949912991,f3ee767038f09e2be751a4a0ca9ee236,
AS,aom,av2,0,A1,Neon1224,3840x2160,30.0000,10,960x540,110,6876.412203,35.423154,41.545851,39.944130,20.117254,16.121113,77.029680,74.586433,32.538761,40.165084,35.394598,41.491698,39.869110,1.620838,5668.27,3.25,40536873407041,17843545564,19373398590240,11339112627,3b58db501b199e3054660b66189cb5f5,
AS,aom,av2,0,A1,Neon1224,3840x2160,30.0000,10,960x540,135,3391.729501,33.881814,38.918895,37.340144,16.712190,14.130153,62.344921,60.093925,30.243687,38.035018,33.836973,38.819001,37.202148,1.752101,5467.13,2.99,31647832347735,13797866007,14311374870054,8005102290,64787ce25cf26867916cbb3889f33968,
AS,aom,av2,0,A1,Neon1224,3840x2160,30.0000,10,960x540,160,1512.717436,31.522215,36.033979,34.240354,13.189598,11.824225,43.489508,41.695416,27.270404,35.415286,31.438276,35.900040,34.040388,1.877417,3936.19,2.17,22923250730156,9878556482,10292981557977,5840151171,89f2d693a886105c3a3b70110d1b7a93,
AS,aom,av2,0,A1,Neon1224,3840x2160,30.0000,10,960x540,185,648.020287,28.885111,33.240357,31.143078,10.165433,9.662278,23.763014,22.742079,24.339751,32.613361,28.781293,33.090346,30.893937,1.888280,2628.80,1.38,16699556894461,6459490765,7391724654847,4001167591,fb039b02db3e087e7e6afe49dfea0772,
AS,aom,av2,0,A1,Neon1224,3840x2160,30.0000,10,960x540,210,247.768232,26.079073,30.639241,28.192831,7.606624,7.722563,6.022136,5.738571,21.503716,29.793280,25.976490,30.491806,27.930886,1.993608,1765.10,0.69,11024071700656,4110494065,4614507768559,1893664599,652814cde397623b9b2f131c28dd3ff0,
AS,aom,av2,0,A1,Neon1224,3840x2160,30.0000,10,960x540,235,87.031123,23.479587,28.381042,25.791751,5.689910,6.173067,0.636310,0.618212,19.040307,27.166429,23.393138,28.227942,25.523905,2.000733,1003.07,0.57,6066464539856,2834577519,2628994333279,1600833784,b6b3dc309da3118f8c6e2625f7f31cf4,
AS,aom,av2,0,A1,Neon1224,3840x2160,30.0000,10,640x360,110,4042.110505,32.670410,38.881079,36.890472,17.761295,13.936194,51.418362,49.540980,28.566596,37.936652,32.641888,38.831821,36.816294,1.703032,4853.81,2.03,27707066820192,9113120908,12729646663821,5369426298,9962a95478dae77b2bd962bf1c4f7f49,
AS,aom,av2,0,A1,Neon1224,3840x2160,30.0000,10,640x360,135,1996.472451,31.530361,36.691393,34.823194,14.563580,12.331136,38.920909,37.330850,27.170805,36.044379,31.495962,36.600086,34.698024,1.879807,3901.76,1.48,22886070753873,6927433238,10238268259387,3971909521,2b23dba8ea87ede0a897d6cb02f589f7,
AS,aom,av2,0,A1,Neon1224,3840x2160,30.0000,10,640x360,160,884.368555,29.607436,34.146575,32.141883,11.383364,10.397782,23.762082,22.731418,25.035026,33.629228,29.546612,34.023833,31.950804,2.076796,2880.79,1.02,17637167519301,4912802063,7540813623768,2743522810,7587d5ea29fcf4b384dfc610705a2046,
AS,aom,av2,0,A1,Neon1224,3840x2160,30.0000,10,640x360,185,370.128948,27.230876,31.720105,29.435572,8.689946,8.524126,8.331224,7.940927,22.613585,31.036788,27.143797,31.578956,29.194208,2.060568,2050.18,0.58,12898319328370,3116665523,5359212937182,1557089894,183070d5311336fbc6788a287700b12f,
AS,aom,av2,0,A1,Neon1224,3840x2160,30.0000,10,640x360,210,134.937063,24.605733,29.449699,26.875091,6.460080,6.808822,1.065355,1.044255,20.100955,28.409609,24.514802,29.309065,26.615474,2.254005,915.56,0.33,5809393210041,1878368143,2394848086635,888618031,7d34504b8afe11310b5e0899783f78e5,
AS,aom,av2,0,A1,Neon1224,3840x2160,30.0000,10,640x360,235,44.731884,22.323923,27.409653,24.780762,4.991483,5.572084,0.133417,0.134007,17.982794,25.968747,22.250467,27.239824,24.500301,2.348935,401.29,0.18,2797990373683,1233537298,1134292733334,541831112,e9c982e9f682b642f3a66c61d5e5d3a8,
AS,aom,av2,0,A1,NocturneDance,3840x2160,60.0000,10,3840x2160,110,45974.248615,45.811896,43.119912,48.029023,26.276772,21.324038,92.495715,90.411354,42.699275,44.433840,45.733933,43.047216,47.969247,0.745192,31347.33,25.57,228793121289173,122821408000,106607589236797,90619900389,5cfb0c91577f71fc2127f4be1c0db7cf,
AS,aom,av2,0,A1,NocturneDance,3840x2160,60.0000,10,3840x2160,135,20002.903385,42.602556,41.117718,46.447185,22.207538,18.189034,81.347283,79.398275,38.825734,42.316798,42.518087,41.073570,46.408977,0.836404,48195.83,23.68,299130360546681,94802365997,125299567584651,64730626331,88917e235c06ed7eca45537dde436f0c,
AS,aom,av2,0,A1,NocturneDance,3840x2160,60.0000,10,3840x2160,160,8568.384000,39.281274,39.327700,44.819252,17.980863,14.948542,62.668297,61.058831,35.027605,40.228091,39.178834,39.302030,44.795339,0.761334,27125.06,14.78,209843825059384,63896184565,92244152324023,52863362232,902904351eac83fe1a4efad505b6e042,
AS,aom,av2,0,A1,NocturneDance,3840x2160,60.0000,10,3840x2160,185,3277.698462,35.852393,37.564282,43.213357,13.594068,11.604753,38.118651,37.131340,31.333075,38.057545,35.728108,37.545162,43.196502,0.703822,17247.29,12.12,134612633322290,45495723265,58757343162398,43496810633,f48a754d60a93a1c99076b8be7da82e9,
AS,aom,av2,0,A1,NocturneDance,3840x2160,60.0000,10,3840x2160,210,855.016615,32.775477,36.152535,41.775222,9.498590,8.669598,15.654969,15.240235,28.212992,35.949323,32.674012,36.138820,41.765315,0.965801,10920.56,8.35,67428901212183,31091601488,28633227369926,23046844659,ff92adfe1a92ab572c783cbc65d3e336,
AS,aom,av2,0,A1,NocturneDance,3840x2160,60.0000,10,3840x2160,235,205.369846,31.093806,35.146225,39.930524,7.413235,7.267807,5.408982,5.196431,26.620076,34.132112,31.056504,35.138092,39.925812,1.988115,4029.05,6.39,28360785495445,21303239768,11525798889340,19253056159,4a7a5cfae4b6a6f0cdbb66bbddb29750,
AS,aom,av2,0,A1,NocturneDance,3840x2160,60.0000,10,2560x1440,110,28082.857846,43.975532,41.676751,46.869650,23.960625,19.509574,87.532576,85.328195,40.421324,43.059639,43.901796,41.631658,46.825049,0.874637,24633.00,14.75,140641888109189,65410691201,64216284457384,39650299012,27bac23edbfa1b7adb70cb91c78db50e,
AS,aom,av2,0,A1,NocturneDance,3840x2160,60.0000,10,2560x1440,135,12228.432000,40.833469,39.990424,45.447318,19.966193,16.455036,73.372495,71.259769,36.742724,41.126674,40.749052,39.959998,45.416755,0.936078,28818.82,12.21,173107649849427,49359410251,74932646700498,33183236912,340455882997c6965f60f41b6dcd1430,
AS,aom,av2,0,A1,NocturneDance,3840x2160,60.0000,10,2560x1440,160,4990.397538,37.459605,38.331686,43.924670,15.672743,13.174946,50.748921,49.239567,33.020727,39.060407,37.349753,38.309897,43.902688,0.929177,19757.50,8.33,119717906095882,32856711903,51376233007405,22762797569,f31a791e8e30eca2b9ebb5a795b43d1f,
AS,aom,av2,0,A1,NocturneDance,3840x2160,60.0000,10,2560x1440,185,1627.757538,34.179488,36.787712,42.584351,11.330511,9.977933,25.310711,24.663246,29.601476,36.968383,34.065270,36.771674,42.570747,1.011503,11321.42,5.54,71858526304642,21380929653,29483547789186,15088457187,d8af1226b6bd32892c100801b68643eb,
AS,aom,av2,0,A1,NocturneDance,3840x2160,60.0000,10,2560x1440,210,366.140308,31.783221,35.720710,41.094945,8.193512,7.780928,8.409594,8.181986,27.267105,35.087993,31.719104,35.709466,41.088240,1.734889,3884.31,3.90,30892590033030,13199593447,13305656232810,13922120118,85513b8fbfabacf853da2b630e57a4df,
AS,aom,av2,0,A1,NocturneDance,3840x2160,60.0000,10,2560x1440,235,91.048615,30.574588,34.897420,39.440905,6.924149,6.981537,1.962954,1.814738,26.167281,33.680232,30.553448,34.890959,39.419921,2.142756,1565.71,2.38,13280810757860,8986058970,5438338886450,8627131591,bdd6ce20fd1ab40cfbacde1b94b0ff18,
AS,aom,av2,0,A1,NocturneDance,3840x2160,60.0000,10,1920x1080,110,19879.011692,42.616977,40.437648,45.917863,22.248789,18.181506,82.540232,80.316886,38.775943,41.992513,42.542903,40.407377,45.880227,0.901300,16435.12,9.41,94080919718803,42250195454,42832063645228,25140511305,f8942b1b517ae4e739e2fe1be54f2020,
AS,aom,av2,0,A1,NocturneDance,3840x2160,60.0000,10,1920x1080,135,8568.738462,39.501324,39.055470,44.661758,18.282033,15.167184,65.868416,63.818430,35.235431,40.219553,39.411766,39.030326,44.635060,0.995599,19031.79,7.66,112826026069451,31681198298,49508450900546,20607956878,05a4f562a3dbedc0214ed00c685a9ac8,
AS,aom,av2,0,A1,NocturneDance,3840x2160,60.0000,10,1920x1080,160,3244.434462,36.139501,37.621108,43.374734,13.944083,11.890405,41.110617,39.840356,31.615060,38.219165,36.029968,37.601033,43.357078,1.103308,12516.08,5.11,77270304717357,19965680742,32546477701382,13770700740,01498b48a348d94aa0c3d890c025a23a,
AS,aom,av2,0,A1,NocturneDance,3840x2160,60.0000,10,1920x1080,185,897.751385,33.084528,36.331417,42.181295,9.857767,8.950453,16.659705,16.230270,28.516069,36.231870,32.983896,36.316170,42.168017,1.484441,6832.93,3.14,42881031163161,11522836232,17795215652710,8539713870,b3960cd227e0dc85088e960a97057c34,
AS,aom,av2,0,A1,NocturneDance,3840x2160,60.0000,10,1920x1080,210,204.827077,31.331113,35.487495,40.745980,7.657199,7.436403,5.716026,5.563439,26.855521,34.640000,31.291313,35.478034,40.734546,2.278146,2720.89,1.66,17481973118904,6832255032,7134520990613,4523982355,ae771d7f4810992eb15d97185360334e,
AS,aom,av2,0,A1,NocturneDance,3840x2160,60.0000,10,1920x1080,235,57.433846,30.210565,34.654541,39.082213,6.664516,6.820054,0.718386,0.648429,25.852159,33.243041,30.194116,34.649384,39.068434,2.586924,1161.03,1.51,7852138820963,5046268026,3089992998152,4110428885,ca33d21fc2e6cf6da9eef00fd2174c47,
AS,aom,av2,0,A1,NocturneDance,3840x2160,60.0000,10,1280x720,110,11918.178462,40.558971,38.669375,44.698710,19.910780,16.245517,72.638501,70.420760,36.373404,40.470995,40.497216,38.646430,44.669957,0.846358,9523.31,4.88,68791079109754,22823464328,32442275128886,17024619198,e0013a5389a7e5eb1bb01a565bf6c76c,
AS,aom,av2,0,A1,NocturneDance,3840x2160,60.0000,10,1280x720,135,4940.529231,37.545361,37.738173,43.731442,15.886630,13.282689,52.508359,50.741060,33.068792,38.918165,37.455475,37.718127,43.709617,1.050694,10162.47,3.73,60220616602041,16237279620,26449770464109,9949251260,15dbbe947a2ec40de3a654bc3ba54338,
AS,aom,av2,0,A1,NocturneDance,3840x2160,60.0000,10,1280x720,160,1591.668923,34.346905,36.739398,42.742058,11.560581,10.162758,26.873813,26.088932,29.762168,37.073388,34.239874,36.723013,42.729399,1.462618,6471.90,2.17,40013265948037,9521282944,16824811346571,5824019164,3ccff08e60cb63d8c4abbe0c68bcebaa,
AS,aom,av2,0,A1,NocturneDance,3840x2160,60.0000,10,1280x720,185,380.695385,31.978350,35.878444,41.596683,8.412848,7.949484,9.027386,8.793162,27.460545,35.395148,31.910571,35.866640,41.586996,2.158320,3043.06,1.12,18898821151382,4679237589,7927935262946,3034413633,e6907dfebeb67a253bfcce5c6b11f5d8,
AS,aom,av2,0,A1,NocturneDance,3840x2160,60.0000,10,1280x720,210,87.371077,30.781443,35.165079,40.108454,7.095502,7.091680,2.013109,1.921414,26.364931,34.094909,30.759938,35.158331,40.101470,2.975254,1154.42,0.66,7914348329925,2774717353,3259799500541,1937560768,a97141bb041642a9c7bfa4323534a257,
AS,aom,av2,0,A1,NocturneDance,3840x2160,60.0000,10,1280x720,235,35.084308,29.678978,34.308087,38.388980,6.377570,6.636103,0.039278,0.030689,25.391942,32.687429,29.664936,34.302297,38.375509,3.344984,528.44,0.49,3664944547342,2077317222,1504697587987,1471545040,705ac84ced6b5a60351e37d04f802dab,
AS,aom,av2,0,A1,NocturneDance,3840x2160,60.0000,10,960x540,110,7930.929231,38.696246,37.679201,44.041090,18.100517,14.484476,60.866937,58.858819,34.250228,39.356008,38.649974,37.657982,44.016099,0.813754,9378.68,3.09,55062267825494,14383922143,24444928899304,8230499055,026c2ac96c0bc4096523f55e7a666159,
AS,aom,av2,0,A1,NocturneDance,3840x2160,60.0000,10,960x540,135,3098.093538,36.021391,37.018700,43.258280,14.054230,11.811670,39.974706,38.633669,31.428232,37.994931,35.939807,37.000399,43.239279,1.165946,6155.05,2.19,36274594626155,9371902709,16027441618771,5830766569,1eacc00d56d4fcece9c7b9e1bf285034,
AS,aom,av2,0,A1,NocturneDance,3840x2160,60.0000,10,960x540,160,873.596308,33.192025,36.292320,42.340515,10.031153,9.071556,16.993920,16.526971,28.611142,36.346743,33.101537,36.277133,42.327660,1.835107,3453.77,1.07,21056215649801,4743405170,8986094793232,2857885555,046b4bb852cbdf9750c6cdfd4c24f10f,
AS,aom,av2,0,A1,NocturneDance,3840x2160,60.0000,10,960x540,185,213.725538,31.473325,35.629092,41.102566,7.795692,7.538545,5.559377,5.413174,26.991895,34.923928,31.431086,35.617925,41.091232,2.619362,1211.71,0.49,9546227447176,2517192082,4133259792780,1719290580,43d4406ddb2d9cb73c480bb00db6119d,
AS,aom,av2,0,A1,NocturneDance,3840x2160,60.0000,10,960x540,210,55.266462,30.403809,34.977293,39.757975,6.794656,6.906950,0.548665,0.521950,26.039123,33.695601,30.387633,34.970547,39.744700,3.361126,691.01,0.35,4350426756384,1600415119,1816469445428,961982551,b471c19600c6fcfc1bd52ffcef725082,
AS,aom,av2,0,A1,NocturneDance,3840x2160,60.0000,10,960x540,235,27.548308,29.182251,34.001355,37.893848,6.178697,6.506726,0.000000,0.000000,24.969555,32.101530,29.165460,33.996251,37.878742,3.704152,342.79,0.26,2144373124125,1167781497,909152544085,707436406,1fa501bdcb693fb49cc7f798c2ce156f,
AS,aom,av2,0,A1,NocturneDance,3840x2160,60.0000,10,640x360,110,3873.522462,35.867460,36.801247,43.388544,14.853205,11.786405,35.965702,34.664080,31.129050,37.835531,35.833056,36.783294,43.369270,0.769562,3892.09,1.42,24304586581099,6932386846,10926900341349,4027591370,7893c2f0b4253fdc3ef5b49f457ff966,
AS,aom,av2,0,A1,NocturneDance,3840x2160,60.0000,10,640x360,135,1313.497846,33.889861,36.387446,42.670029,11.296647,9.756656,19.136744,18.498068,29.223204,36.741795,33.833093,36.372391,42.656741,1.390645,2640.47,0.86,17198464580419,4150298507,7404102933213,2445139038,557ae7299c8f4e761a30be357b4b654c,
AS,aom,av2,0,A1,NocturneDance,3840x2160,60.0000,10,640x360,160,335.579077,31.987946,35.886766,41.698460,8.483098,7.970972,5.979269,5.801902,27.453904,35.450202,31.935644,35.875329,41.691516,2.304980,1371.94,0.35,8485914997578,1840335770,3576329590569,942152570,1cbbcff2d1456361a752ab056ab16fa8,
AS,aom,av2,0,A1,NocturneDance,3840x2160,60.0000,10,640x360,185,91.824000,30.904009,35.318043,40.497067,7.195468,7.155936,0.927205,0.898753,26.479795,34.333204,30.882060,35.310404,40.487170,3.149998,527.81,0.18,3670159520341,1002231557,1488093791542,497599598,3802a2dfa6b3b64c161f8b1d0ad7dc42,
AS,aom,av2,0,A1,NocturneDance,3840x2160,60.0000,10,640x360,210,34.312615,29.858962,34.581725,39.090531,6.476167,6.699558,0.004830,0.005190,25.567442,33.106705,29.846627,34.576509,39.077778,3.605332,263.71,0.12,1839871361418,655503186,748575712604,346492761,c399ea8088020877b78f6a0cc8a334e7,
AS,aom,av2,0,A1,NocturneDance,3840x2160,60.0000,10,640x360,235,19.776000,28.571985,33.528635,37.087231,5.945723,6.349306,0.000000,0.000000,24.433755,31.612770,28.555855,33.523516,37.080010,3.889325,145.21,0.08,977245849751,443348114,386407913987,239568174,fd822c8374559be4322ae8ef9fdc3eab,
AS,aom,av2,0,A1,PierSeaSide,3840x2160,30.0000,10,3840x2160,110,10374.199416,44.277628,46.870170,44.179878,30.928403,22.956016,99.542878,98.560508,44.422583,43.818587,44.118362,46.765140,44.059566,0.001194,30683.25,15.78,192455337948316,63807721435,80584261858252,42779068617,bb0b61b651d9404256ee567f14bf7ba6,
AS,aom,av2,0,A1,PierSeaSide,3840x2160,30.0000,10,3840x2160,135,3444.797908,42.454872,45.707016,43.274163,27.244276,20.654783,97.384529,95.447934,41.425321,42.647345,42.191986,45.604714,43.163703,0.001951,29472.70,13.85,186499897751031,51587279035,77482408662865,37880422011,3b4d3b7bb188fb5fa59ad079b63e1910,
AS,aom,av2,0,A1,PierSeaSide,3840x2160,30.0000,10,3840x2160,160,1146.962044,40.208819,44.238148,42.342086,23.354221,18.171589,90.810661,88.677013,38.175824,41.211757,39.888924,44.146955,42.243331,0.004451,15197.51,9.00,104447978569557,37873572922,43374556153631,26394518734,24239512db6335b38d334277b556eeeb,
AS,aom,av2,0,A1,PierSeaSide,3840x2160,30.0000,10,3840x2160,185,420.568549,37.825439,42.262129,41.018317,20.031382,15.940629,80.393349,78.234747,35.017899,39.470867,37.539296,42.197623,40.940670,0.011036,9215.89,6.86,61138010526181,28329127929,24810255723482,18743553829,51c0cc0ade08a446caed77ebd35f80e7,
AS,aom,av2,0,A1,PierSeaSide,3840x2160,30.0000,10,3840x2160,210,165.495262,35.210777,39.914937,39.206931,16.972074,13.773838,63.737664,61.797981,31.689751,37.352594,35.003970,39.874337,39.152333,0.042963,5795.06,6.31,37264346132096,22267064495,15620540517257,17277049988,2e1ed4bd169b841e54352fdd8c6b0581,
AS,aom,av2,0,A1,PierSeaSide,3840x2160,30.0000,10,3840x2160,235,70.589033,32.386916,37.272137,37.283655,13.915930,11.542043,40.804257,39.246971,28.309046,34.837423,32.266657,37.251925,37.256274,0.138369,3275.35,5.37,19716464432081,17157933298,8749308658308,14916644967,be97870ded4a32f6a00d4c57ee4f4460,
AS,aom,av2,0,A1,PierSeaSide,3840x2160,30.0000,10,2560x1440,110,5212.022760,42.927759,45.922582,43.160615,28.843830,21.618966,98.639852,96.792558,42.655133,42.865247,42.661688,45.795531,43.015063,0.001364,14750.70,7.14,92819914398205,30401431249,38719929992548,19187725488,7b8d7e3def0cbabfd9794bfb882e8464,
AS,aom,av2,0,A1,PierSeaSide,3840x2160,30.0000,10,2560x1440,135,1802.399489,41.104975,44.824802,42.488644,25.145967,19.301798,94.858634,92.123191,39.631072,41.776642,40.766000,44.714529,42.359367,0.003454,11084.64,5.04,87765600224304,23851150907,38023209130033,17910378907,ea8be1a0f61f4239f07253d6e539cace,
AS,aom,av2,0,A1,PierSeaSide,3840x2160,30.0000,10,2560x1440,160,626.832233,38.908215,43.192091,41.540646,21.535977,16.947589,86.527002,83.803178,36.489443,40.301827,38.574840,43.109986,41.439730,0.007577,7767.70,4.47,48520354467370,17657718113,20564243290998,12202019465,531053a1fec772dd711e31a7a7756f65,
AS,aom,av2,0,A1,PierSeaSide,3840x2160,30.0000,10,2560x1440,185,242.550438,36.523325,41.110501,40.129087,18.541497,14.859608,73.648612,71.174290,33.357964,38.481569,36.267623,41.053866,40.058418,0.023542,4584.32,3.42,30604147596523,14908151984,12272815980553,9342255773,01a25e55dbf2d72d4c501752f99a4373,
AS,aom,av2,0,A1,PierSeaSide,3840x2160,30.0000,10,2560x1440,210,99.647945,33.862197,38.796081,38.342639,15.620522,12.734352,54.507451,52.401640,30.042872,36.333026,33.692066,38.764553,38.300787,0.096836,2524.83,2.25,21037669739964,10351937791,8951973570180,8038054593,014dab44fd3dc8b9ba25306f2a041609,
AS,aom,av2,0,A1,PierSeaSide,3840x2160,30.0000,10,2560x1440,235,43.936942,30.980753,36.403789,36.585800,12.533739,10.463606,29.459262,27.966766,26.725861,33.925723,30.886509,36.385877,36.556775,0.168037,1755.43,2.22,11390487970819,7792861346,4703828394061,6085099823,7bf5ec5e9d59e4d1bf4327b3ce1150f5,
AS,aom,av2,0,A1,PierSeaSide,3840x2160,30.0000,10,1920x1080,110,3165.460909,41.266632,44.802829,42.445334,27.289195,20.380140,96.068994,93.339511,40.975624,41.896773,40.838788,44.663154,42.294564,0.001777,14684.54,4.37,91383413503848,18044762897,38438292118737,11704032370,3e17abea169d08578eade20ad69fee72,
AS,aom,av2,0,A1,PierSeaSide,3840x2160,30.0000,10,1920x1080,135,1134.407841,39.738159,43.803497,41.886433,23.677176,18.225377,90.829272,87.899688,38.177692,40.912711,39.310963,43.688848,41.759033,0.005578,14981.30,3.20,94395013494742,13169104652,39156867119736,8910306896,0e09cfe969c85c189e9b21710c662310,
AS,aom,av2,0,A1,PierSeaSide,3840x2160,30.0000,10,1920x1080,160,415.087266,37.768202,42.207896,40.896952,20.403585,16.089114,81.362901,78.596889,35.196757,39.501053,37.416733,42.130949,40.805040,0.016347,8351.11,2.24,53543099379940,9830914437,21921112660336,6104006803,d246502b440f88c27bea763ba3fe04be,
AS,aom,av2,0,A1,PierSeaSide,3840x2160,30.0000,10,1920x1080,185,166.673775,35.482426,40.196870,39.447508,17.502300,14.063865,67.026697,64.511186,32.106658,37.713558,35.240337,40.148441,39.386011,0.053192,5080.87,2.00,33573030506207,8758223649,13428053049787,5444968241,7069617349c938113f2fef1f2ad1eb42,
AS,aom,av2,0,A1,PierSeaSide,3840x2160,30.0000,10,1920x1080,210,71.144169,32.832051,37.943302,37.737113,14.667259,11.957227,46.008602,43.925660,28.832254,35.602312,32.681748,37.909133,37.693425,0.127474,3323.55,1.65,22681033146803,6087867837,8868830674076,4468989124,5e2ad40591522160644ebbe64fb1d4bc,
AS,aom,av2,0,A1,PierSeaSide,3840x2160,30.0000,10,1920x1080,235,30.346239,29.996835,35.844192,36.217676,11.455039,9.670936,21.472802,20.121759,25.674180,33.222918,29.910344,35.830220,36.194057,0.202463,1416.88,1.52,11893710840271,4026291411,4941328823362,5366826502,abdc53b4f727748cfbd5850d4db72937,
AS,aom,av2,0,A1,PierSeaSide,3840x2160,30.0000,10,1280x720,110,1506.323553,38.081620,42.845488,41.464620,24.793497,18.003007,86.653908,83.945675,36.609373,40.161864,37.569625,42.734176,41.332817,0.002311,10306.91,1.75,65184257734701,8009183891,26912494969188,4652982673,68eeb68f37f9ce81ab8631238d5b4bab,
AS,aom,av2,0,A1,PierSeaSide,3840x2160,30.0000,10,1280x720,135,573.037466,37.119227,42.052720,40.955633,21.657852,16.396198,80.309979,77.556375,34.884135,39.376498,36.653477,41.959528,40.847030,0.008644,6568.44,1.37,42059894745027,6033638505,17173164320582,3664010994,08f678f9931a7c28cfafc414756f084e,
AS,aom,av2,0,A1,PierSeaSide,3840x2160,30.0000,10,1280x720,160,228.127951,35.715641,40.681404,39.959946,18.783090,14.677988,69.789676,67.283413,32.687921,38.163650,35.360588,40.617509,39.881512,0.027915,3680.02,0.95,25608468575495,4965025419,10388408951487,2744004270,31c37883fd58e60e7091b4db515339bb,
AS,aom,av2,0,A1,PierSeaSide,3840x2160,30.0000,10,1280x720,185,97.910607,33.789839,38.896863,38.574432,16.051900,12.857332,54.163276,51.943377,30.065216,36.524607,33.567874,38.857717,38.522173,0.092842,2426.55,0.88,17243946081473,4729503100,6881051505860,2565794230,1da49588a50948428eaab3f7581498ee,
AS,aom,av2,0,A1,PierSeaSide,3840x2160,30.0000,10,1280x720,210,43.900056,31.297142,36.756647,36.948472,13.106513,10.761307,32.302290,30.598484,27.078311,34.407829,31.179691,36.730981,36.918912,0.162087,1751.14,0.67,11864079398453,3169056294,4643908550032,1814565508,11627ae9d8c0973088b5c6998a64aa6d,
AS,aom,av2,0,A1,PierSeaSide,3840x2160,30.0000,10,1280x720,235,20.794569,28.666410,34.835985,35.495484,10.038524,8.617815,9.557112,8.496862,24.293670,32.235045,28.598782,34.820712,35.475352,0.247442,1010.75,0.36,7141257409618,1897832831,2699631138046,1003738482,2e243b0bd2e52fe7c7f7ba352a32f170,
AS,aom,av2,0,A1,PierSeaSide,3840x2160,30.0000,10,960x540,110,903.705236,35.581478,41.279231,40.695315,23.236889,15.769429,72.810008,70.457855,32.576285,38.715420,35.172524,41.200362,40.588082,0.004108,6098.47,1.02,37420508978476,5054419682,15918304470716,2675141068,4c91831a1e3f4496d78aed8bc89c2634,
AS,aom,av2,0,A1,PierSeaSide,3840x2160,30.0000,10,960x540,135,362.583515,34.970811,40.649970,40.230970,20.393516,14.703682,66.294335,64.034002,31.670353,38.074767,34.589604,40.582033,40.140661,0.015556,2831.72,0.70,22879592056769,3815811948,9680140341651,2409410865,e3ee8c453e1b8647095f474ba6ac6327,
AS,aom,av2,0,A1,PierSeaSide,3840x2160,30.0000,10,960x540,160,152.620150,33.980270,39.534749,39.310124,17.722960,13.422789,55.896830,53.796275,30.298100,37.067664,33.674902,39.483460,39.247006,0.053854,2296.57,0.66,14480990721678,3272509441,6038883030197,1757425334,f05e669e88406b63f211f3d555c0e63a,
AS,aom,av2,0,A1,PierSeaSide,3840x2160,30.0000,10,960x540,185,69.250065,32.423201,37.969608,37.974357,15.029430,11.866271,40.225442,38.411697,28.349440,35.568769,32.231348,37.937269,37.931454,0.133218,1264.58,0.43,10367372834253,2820957838,4357479333545,1512500489,d8f1b7abe0e3da403aeaaa15ddd7c732,
AS,aom,av2,0,A1,PierSeaSide,3840x2160,30.0000,10,960x540,210,32.618426,30.187856,36.075224,36.497976,11.977058,9.898613,19.986541,18.740067,25.846158,33.672793,30.081786,36.059570,36.472144,0.197095,1247.24,0.37,7652803392602,1809371747,3313638614370,1007929923,74aa3b4805827ad515b4d3bd6a4238b5,
AS,aom,av2,0,A1,PierSeaSide,3840x2160,30.0000,10,960x540,235,16.696518,27.633200,34.287025,35.142599,8.872421,7.783466,0.579824,0.394871,23.281868,31.452020,27.578466,34.275497,35.126523,0.277951,783.78,0.30,4900452046666,1224965454,2101755097501,821389581,e7591320101e9afa6e74346ca62794e2,
AS,aom,av2,0,A1,PierSeaSide,3840x2160,30.0000,10,640x360,110,405.710806,32.395408,39.460717,39.639292,19.781421,12.798171,42.011747,40.245028,28.088675,36.688186,32.168108,39.410476,39.558491,0.009288,2170.38,0.42,13747734593740,2258731234,5668248797600,1112723344,6cef0997b0557a6817a5423851bdd88d,
AS,aom,av2,0,A1,PierSeaSide,3840x2160,30.0000,10,640x360,135,175.388129,32.065900,38.966033,39.199901,17.828936,12.232500,36.701834,35.046382,27.710545,36.217941,31.847162,38.921124,39.132391,0.031878,1257.40,0.32,8079613099744,1732623758,3294937201542,828706712,4af93d914941b52ee10f58f26740ed12,
AS,aom,av2,0,A1,PierSeaSide,3840x2160,30.0000,10,640x360,160,81.335814,31.477267,38.081582,38.339172,15.644145,11.424021,28.321542,26.893836,27.054525,35.423074,31.288174,38.046615,38.290213,0.096818,698.98,0.25,4822623859797,1562140429,1981530479309,720386022,ee5b626ab20dafa7d268053d224e9c8d,
AS,aom,av2,0,A1,PierSeaSide,3840x2160,30.0000,10,640x360,185,40.366362,30.398540,36.676788,37.127625,13.151230,10.249201,16.586104,15.454551,25.917888,34.165009,30.263770,36.653449,37.099355,0.180301,497.18,0.19,3320180887300,1304047602,1319333952864,524358315,7daeed8874e4029fdd517f34af17ea38,
AS,aom,av2,0,A1,PierSeaSide,3840x2160,30.0000,10,640x360,210,20.798258,28.592483,35.035589,35.844194,10.239232,8.594196,2.279203,1.793982,24.145534,32.304163,28.514144,35.024624,35.824692,0.273555,352.29,0.16,2372320092292,887601776,940967023015,406376972,a23d111a0ac632d5312521fa6fe9b0d3,
AS,aom,av2,0,A1,PierSeaSide,3840x2160,30.0000,10,640x360,235,11.847833,26.511227,33.377859,34.636361,7.680825,6.941169,0.000000,0.000000,22.215703,30.419224,26.464822,33.366380,34.612065,0.337062,235.64,0.07,1635488422186,465600514,637239345123,214544363,426619831fdfa346d2309f9051c5553c,
AS,aom,av2,0,A1,Tango,3840x2160,60.0000,10,3840x2160,110,28110.077000,40.333787,49.507965,47.675570,26.910547,18.102660,96.619326,94.911272,41.077476,42.420436,40.266994,49.496577,47.650282,0.416130,46232.72,21.18,282855980575207,86807574012,120231965597730,57925960574,d8be90a5af668cfe1929ecbbd180a088,
AS,aom,av2,0,A1,Tango,3840x2160,60.0000,10,3840x2160,135,9950.994237,39.643963,48.665300,46.421929,24.419309,17.184411,91.299819,89.516587,39.352161,41.651720,39.633247,48.659157,46.403049,0.478004,35417.90,16.97,220869997063084,68279276057,92148101341917,46729185931,8c513d8735158a1d9a74971f655aebb2,
AS,aom,av2,0,A1,Tango,3840x2160,60.0000,10,3840x2160,160,4105.215400,38.518977,47.332817,44.541279,21.192999,15.870022,80.910339,79.130447,36.909506,40.469461,38.507178,47.321890,44.512805,0.508092,18060.86,14.38,119837889206550,52409552147,50702825758383,42803073649,6dfc3348bd6d34cf54da37ba4ba4a5b9,
AS,aom,av2,0,A1,Tango,3840x2160,60.0000,10,3840x2160,185,2011.333897,36.737354,45.454196,42.157759,17.631118,14.109669,65.015747,63.285776,33.960068,38.773359,36.710390,45.436821,42.124904,0.595392,12278.01,11.18,74566301135077,42392304443,32116404761452,30802591047,31bf51ad48e7f72b844a54190bf28c6c,
AS,aom,av2,0,A1,Tango,3840x2160,60.0000,10,3840x2160,210,965.477599,34.235715,42.869740,39.308406,13.984510,11.997927,45.317089,43.784763,30.689109,36.472102,34.190648,42.840124,39.270134,0.718110,7887.51,9.05,48721852291549,35971867152,20736928715697,24846911525,1c376cc57ac27e1071124415c9ca8d77,
AS,aom,av2,0,A1,Tango,3840x2160,60.0000,10,3840x2160,235,455.437486,31.327442,39.848178,36.255095,10.672861,9.842505,25.609878,24.543116,27.442475,33.666967,31.271117,39.807665,36.210944,0.830139,4871.63,9.05,30139902771825,31716177447,12889794550203,24880366807,2e3b2230cf1205cb84d3553d212aad76,
AS,aom,av2,0,A1,Tango,3840x2160,60.0000,10,2560x1440,110,13706.384692,39.939292,49.071792,46.952241,25.565040,17.593435,94.430292,92.413591,40.141406,41.986069,39.927108,49.064877,46.932802,0.521689,16807.39,9.85,98173513290370,42425100622,43882454388777,26726058261,7e3084250275e71f15e64c825611c3b8,
AS,aom,av2,0,A1,Tango,3840x2160,60.0000,10,2560x1440,135,5665.431184,39.132049,48.095841,45.532893,22.837219,16.561119,87.407587,85.276896,38.162385,41.112291,39.124993,48.088028,45.510670,0.552958,14555.40,7.35,89801898750853,34382317998,37919264674248,20102088509,444709f2466b5b9f4afe707e588114f6,
AS,aom,av2,0,A1,Tango,3840x2160,60.0000,10,2560x1440,160,2664.665796,37.678015,46.562027,43.458238,19.336862,15.004293,74.033989,71.998155,35.421003,39.701880,37.660057,46.547070,43.425854,0.629482,9256.44,6.57,55800095723777,26249597530,24143682315733,18083526336,bd38addb5a45ce48c8407c1b0fbf7a5e,
AS,aom,av2,0,A1,Tango,3840x2160,60.0000,10,2560x1440,185,1298.419734,35.551002,44.529326,40.982728,15.754892,13.075459,55.592636,53.800307,32.340106,37.787944,35.515403,44.508844,40.946906,0.725423,6034.45,4.92,38182311500307,20543414831,15756108382307,13526762829,cc7ae1af70bc877c88071b5b7adc1300,
AS,aom,av2,0,A1,Tango,3840x2160,60.0000,10,2560x1440,210,608.161070,32.800684,41.869420,38.115380,12.257908,10.921549,34.632274,33.368826,29.063786,35.282566,32.750243,41.840568,38.076584,0.823256,4191.68,4.57,25917127771072,16931698902,10976458826742,12582220344,451cec2af8d3d5b6b5a381628b37e83e,
AS,aom,av2,0,A1,Tango,3840x2160,60.0000,10,2560x1440,235,279.010835,29.820290,38.842024,35.076005,9.238484,8.888397,15.604964,14.932349,25.912541,32.454256,29.759479,38.795830,35.033805,0.947362,2689.02,4.82,16169174357464,14515853966,7072877731209,13131992544,53abef8d11942978fa25c6e70c20885d,
AS,aom,av2,0,A1,Tango,3840x2160,60.0000,10,1920x1080,110,9103.910244,39.627995,48.674033,46.270667,24.515440,17.192227,92.000584,89.789319,39.358278,41.626345,39.621334,48.667407,46.251196,0.590657,8943.60,6.67,52669742278860,27097446047,23348296363330,17972575469,7885ea3607eaf4b2304c7f215e13002c,
AS,aom,av2,0,A1,Tango,3840x2160,60.0000,10,1920x1080,135,4130.286944,38.655254,47.597427,44.751647,21.578481,16.033505,83.332658,81.018025,37.184516,40.638014,38.646072,47.587876,44.727256,0.664670,8102.09,5.29,52041044509627,22153302437,22726379736023,15397020122,62f9e0e8689a9f1b3b51ee3aee9bee66,
AS,aom,av2,0,A1,Tango,3840x2160,60.0000,10,1920x1080,160,1976.587105,36.956912,45.951284,42.613518,17.999860,14.321568,68.002129,65.878612,34.298061,39.078189,36.933954,45.934258,42.580444,0.765477,5387.91,4.10,35251473201006,16439739121,15122493205929,11957032484,fd2ba2a2e4ca0792c7f6bbde90bea168,
AS,aom,av2,0,A1,Tango,3840x2160,60.0000,10,1920x1080,185,947.123031,34.600066,43.818679,40.080277,14.432875,12.299411,48.375214,46.671748,31.156352,37.003867,34.558761,43.795788,40.042894,0.870986,3994.27,2.88,25293032843122,12158723303,10423236014581,7841401977,8fede76ad44259ece1523931490d02c3,
AS,aom,av2,0,A1,Tango,3840x2160,60.0000,10,1920x1080,210,432.280335,31.726394,41.070774,37.185819,11.066425,10.155237,28.404808,27.245858,27.911692,34.384832,31.671949,41.041387,37.147867,0.974992,2764.21,2.69,17307211419895,9841097228,7220166186296,7387004402,7e6ac8f9932384feab10c2c6d1499dfa,
AS,aom,av2,0,A1,Tango,3840x2160,60.0000,10,1920x1080,235,195.640667,28.782307,38.151896,34.238062,8.346086,8.280212,9.922955,9.461169,24.890774,31.521316,28.723203,38.114321,34.190517,0.986677,1780.01,2.28,10866574527062,8067569525,4669144769231,6118111132,4df1229bcd12366292b47e051673abdc,
AS,aom,av2,0,A1,Tango,3840x2160,60.0000,10,1280x720,110,5484.633520,38.971860,47.933331,45.030479,22.799253,16.469016,86.201044,83.745300,37.899790,40.945461,38.965744,47.924951,45.008885,0.644865,8619.46,3.13,50265383124363,13818977182,22481291806734,8343931701,d4924b3f497d624e9e49f4e33e0eaade,
AS,aom,av2,0,A1,Tango,3840x2160,60.0000,10,1280x720,135,2692.754630,37.731073,46.679320,43.363110,19.653561,15.113616,74.908622,72.397545,35.525955,39.762350,37.716461,46.666248,43.334721,0.755706,6214.85,2.93,37355469974613,11996584889,16199316411911,7873173162,75d75e4d48f8c80ba888ffb0bee3c17d,
AS,aom,av2,0,A1,Tango,3840x2160,60.0000,10,1280x720,160,1286.723123,35.733875,44.870530,41.217628,16.074675,13.256004,57.541401,55.431806,32.583650,38.009673,35.703934,44.851301,41.182348,0.910197,4302.02,1.92,28047580922706,8964919685,12068019335938,5558075956,35f13c62c51335f3f29746036501e943,
AS,aom,av2,0,A1,Tango,3840x2160,60.0000,10,1280x720,185,607.821717,33.157303,42.586328,38.741834,12.662019,11.200677,37.483546,36.039620,29.478422,35.767385,33.111481,42.556872,38.703964,1.022946,3374.56,1.30,22238625426362,5985564056,9464955311363,3805473618,45cbd7520a378399ee6454df72a49500,
AS,aom,av2,0,A1,Tango,3840x2160,60.0000,10,1280x720,210,269.291324,30.190521,39.992984,35.933906,9.566321,9.151850,18.213797,17.480911,26.333795,33.061407,30.133916,39.967700,35.899109,1.084765,1663.87,0.86,10336442084842,4736266877,4341082233232,2324527774,83812875fc4313785635c7e9a0b217f0,
AS,aom,av2,0,A1,Tango,3840x2160,60.0000,10,1280x720,235,120.381772,27.237335,37.073160,32.966463,7.192205,7.460730,1.997776,1.892830,23.392092,30.097947,27.174910,37.046643,32.917750,1.050669,1044.91,0.87,6373371815135,3778642278,2733247951830,2314655072,cb05464712c045c5b4bc6c228559223b,
AS,aom,av2,0,A1,Tango,3840x2160,60.0000,10,960x540,110,3992.402674,38.239756,47.248337,43.904843,21.416540,15.760266,78.677184,76.237758,36.428485,40.284981,38.231277,47.237950,43.882620,0.707808,6045.30,1.89,35648852204124,8865975202,15788063338196,5057110619,3443d283e68bfe04cb7eaf8e392b86e8,
AS,aom,av2,0,A1,Tango,3840x2160,60.0000,10,960x540,135,1993.289172,36.850772,45.938433,42.285614,18.215089,14.323485,66.062608,63.598521,34.117522,39.014779,36.831485,45.924140,42.258060,0.850160,4506.17,1.79,26375697368376,7612834756,11775029676068,4764931346,1a62d7aa2665473ccc542171133cc726,
AS,aom,av2,0,A1,Tango,3840x2160,60.0000,10,960x540,160,944.902482,34.705728,44.147004,40.154617,14.698965,12.425580,47.768732,45.866617,31.266277,37.152259,34.670858,44.127531,40.118432,1.044240,3330.09,1.19,20311433837141,5850822879,8710714720978,3223774950,90752c08da697e734c41d640285d8d4f,
AS,aom,av2,0,A1,Tango,3840x2160,60.0000,10,960x540,185,438.613694,32.054665,41.850310,37.683843,11.424404,10.400647,28.423484,27.299387,28.270551,34.826506,32.006469,41.828419,37.643290,1.168601,2700.02,0.79,16055638007826,3769767933,7071068201136,2117371896,f2b434d935833c478c4fba567ec1043e,
AS,aom,av2,0,A1,Tango,3840x2160,60.0000,10,960x540,210,193.689388,29.135320,39.239807,34.998363,8.654044,8.528305,10.604264,10.098309,25.281338,32.116857,29.079256,39.215974,34.966718,1.180662,1046.09,0.61,6280845213163,2868357598,2732858874140,1684194131,b415aaa46f6f0afc09ff261cd27c5837,
AS,aom,av2,0,A1,Tango,3840x2160,60.0000,10,960x540,235,86.472297,26.234843,36.255696,32.218285,6.496737,6.956071,0.219478,0.196552,22.432158,29.229388,26.174991,36.231486,32.174528,1.167953,668.51,0.48,3866155770098,2180966616,1749473951620,1260147989,784715d31c20b403f9524238f1c8ca60,
AS,aom,av2,0,A1,Tango,3840x2160,60.0000,10,640x360,110,2524.055637,36.614203,45.997096,42.068741,19.089711,14.368026,58.941762,56.868618,33.591965,39.020627,36.603484,45.985342,42.044954,0.762260,2275.73,1.02,13203177314560,4714950406,5940603510392,2681362747,b34c7baa2eae5cb9927c2ad1c50ee5ea,
AS,aom,av2,0,A1,Tango,3840x2160,60.0000,10,640x360,135,1272.271114,35.202681,44.643254,40.525743,16.048719,12.986860,46.133896,44.206300,31.747754,37.694494,35.179466,44.628400,40.494246,0.948303,1669.64,0.81,9995368801901,3850054542,4356736672475,2144391508,e7fd7351662b4ac711a84c4724098828,
AS,aom,av2,0,A1,Tango,3840x2160,60.0000,10,640x360,160,602.871590,33.056672,42.806201,38.500512,12.800850,11.198605,29.936503,28.610192,29.291671,35.768352,33.018856,42.785372,38.461725,1.171237,1164.93,0.66,7070521033223,3066830152,3038467004314,1760854885,1d679df14bbc579bcffb0c866eaf6686,
AS,aom,av2,0,A1,Tango,3840x2160,60.0000,10,640x360,185,275.901329,30.425809,40.516745,36.233522,9.846107,9.335729,13.189438,12.618911,26.562512,33.374970,30.375825,40.490197,36.196907,1.318435,714.60,0.39,4693122395689,2128930639,2007569399843,1143662973,56c0aabe6883b85410cb779e39628509,
AS,aom,av2,0,A1,Tango,3840x2160,60.0000,10,640x360,210,120.473988,27.536533,37.829252,33.630738,7.429371,7.662185,0.982572,0.916074,23.715748,30.587209,27.479397,37.798434,33.589231,1.311775,475.23,0.25,2993299837780,1378754817,1242629605096,679290518,1df302f5ef77d3736cf7b4046ce32019,
AS,aom,av2,0,A1,Tango,3840x2160,60.0000,10,640x360,235,54.809191,24.718434,35.128491,30.813892,5.624453,6.298662,0.014154,0.013375,20.988247,27.628091,24.659389,35.110926,30.762656,1.156714,296.15,0.18,1841014536843,942639080,775351479750,458764131,89d502fa07ca61d617ed753e83515499,
AS,aom,av2,0,A1,TimeLapse,3840x2160,60.0000,10,3840x2160,110,27586.473834,43.261281,48.989700,50.400930,30.944930,22.891858,94.722828,92.911252,44.563641,44.270610,43.162059,48.963764,50.335437,0.013236,26390.09,16.66,159661837026445,62976170092,68775973602115,45404555364,341ddc8fd5ee9ea49466bba82926382e,
AS,aom,av2,0,A1,TimeLapse,3840x2160,60.0000,10,3840x2160,135,10256.330746,41.255119,47.004368,48.398394,27.197584,20.364219,91.324373,89.204135,40.818833,42.457718,41.192149,46.992004,48.368237,0.011194,22528.43,11.80,150364491339409,45369498068,63214952934641,34840473512,57fcf17823e750810ab977d89dca55bd,
AS,aom,av2,0,A1,TimeLapse,3840x2160,60.0000,10,3840x2160,160,3841.962345,38.921021,44.649337,46.073435,23.181944,17.577233,84.815175,82.232262,37.019917,40.245162,38.870788,44.641645,46.046179,0.010209,14724.38,8.93,91147364699566,34718249840,38527665194642,24989031334,18f641b5507829142814901db4ced9b0,
AS,aom,av2,0,A1,TimeLapse,3840x2160,60.0000,10,3840x2160,185,1494.159994,36.438889,42.248032,43.739623,19.395072,14.830911,74.258510,71.257766,33.546673,37.848119,36.391384,42.241111,43.683493,0.015995,8949.98,7.86,53944884126926,27295347680,23625136590091,22227827716,a35a4949f045e7506a419f7e0ec1c742,
AS,aom,av2,0,A1,TimeLapse,3840x2160,60.0000,10,3840x2160,210,556.361792,33.745089,39.756673,41.281346,15.580890,12.075205,58.638262,55.407943,30.156289,35.202263,33.691154,39.752143,41.217596,0.023822,4774.27,6.24,29924547292897,20340191610,12671101578894,18023327993,6be0ca6c49b0015cb65c7c9cdc18d9c4,
AS,aom,av2,0,A1,TimeLapse,3840x2160,60.0000,10,3840x2160,235,209.745946,31.063007,37.557492,38.755148,12.108452,9.663745,39.706821,37.098481,27.097401,32.622678,31.003663,37.544395,38.647515,0.036247,2907.66,4.77,18271298410013,15947750766,7740618527844,13806684468,fefc988eb65a8922e623121f17335658,
AS,aom,av2,0,A1,TimeLapse,3840x2160,60.0000,10,2560x1440,110,14406.846077,41.683652,47.678929,49.173878,28.802693,21.367916,92.397373,90.260912,42.331482,42.984125,41.617937,47.664041,49.138892,0.013634,12072.15,7.29,71906146400294,29901163028,31534334353004,19695719177,7547bad99cd7f44dd92cd3f604eb654a,
AS,aom,av2,0,A1,TimeLapse,3840x2160,60.0000,10,2560x1440,135,5673.929763,39.801714,45.696107,47.172825,25.068932,18.833704,87.595096,85.247694,38.705582,41.181910,39.746895,45.688020,47.149492,0.012805,11798.92,5.76,72386849231100,21402898859,30762829754993,15925234146,9bb3297e8916da4cdb7d6d0299771f32,
AS,aom,av2,0,A1,TimeLapse,3840x2160,60.0000,10,2560x1440,160,2189.958964,37.508215,43.372871,44.901219,21.141684,16.077770,79.038920,76.339950,35.110499,38.957345,37.459578,43.366577,44.866132,0.015212,7299.35,3.98,45201943592178,15745751475,19066558141493,11052915148,cfcdeee34d679260b7400b07cb0e2251,
AS,aom,av2,0,A1,TimeLapse,3840x2160,60.0000,10,2560x1440,185,842.037962,35.017699,41.086716,42.655381,17.410593,13.355694,65.935497,63.104418,31.758048,36.588018,34.964131,41.081055,42.590525,0.019445,4215.09,2.76,27132934367930,12000296568,11089983546567,7780138650,67cb188c2c5c20946de30b886bbb3ffa,
AS,aom,av2,0,A1,TimeLapse,3840x2160,60.0000,10,2560x1440,210,308.873895,32.365549,38.905578,40.484039,13.694720,10.745374,48.773244,46.096800,28.571308,34.091800,32.300247,38.900332,40.391232,0.026632,2560.18,2.57,16058368987355,8641042630,6816671967366,7500103381,cfe4b669a40d738a1a60b023c887d8b8,
AS,aom,av2,0,A1,TimeLapse,3840x2160,60.0000,10,2560x1440,235,120.912933,29.748501,36.952480,38.023293,10.430412,8.560728,29.885008,27.882305,25.679882,31.561915,29.682347,36.941011,37.879438,0.041348,1432.98,2.14,9248183691405,6392004563,3807894906917,6270701154,e902809c0c9f395e576d3117495e4e6e,
AS,aom,av2,0,A1,TimeLapse,3840x2160,60.0000,10,1920x1080,110,9212.138016,40.128968,46.583216,48.245735,27.233931,20.012782,89.219587,86.824414,40.467949,41.799358,40.063364,46.573494,48.223364,0.017006,7267.95,4.44,42389730740522,17139329186,19004113620188,11888274423,f64634af1f05f386dcb7028a2fc087f3,
AS,aom,av2,0,A1,TimeLapse,3840x2160,60.0000,10,1920x1080,135,3730.835319,38.489871,44.706044,46.305604,23.542131,17.633360,83.347316,80.845627,37.133094,40.109846,38.433675,44.700057,46.280167,0.017710,7205.42,3.54,44037821019291,12303716531,18802465130184,9665988205,ef0bfd8b26bb4f2df7746f0275ea9949,
AS,aom,av2,0,A1,TimeLapse,3840x2160,60.0000,10,1920x1080,160,1460.682087,36.368522,42.504174,44.107857,19.716323,14.983851,73.291270,70.613207,33.742730,37.990600,36.314754,42.498425,44.063767,0.022080,4316.27,2.34,28256524156316,8833731442,12143819785359,6959673380,d312fb260973d821136e4474fb71ce96,
AS,aom,av2,0,A1,TimeLapse,3840x2160,60.0000,10,1920x1080,185,556.096211,33.971271,40.357817,41.987308,16.032785,12.334625,59.008914,56.356815,30.526829,35.705055,33.910917,40.353707,41.914981,0.027228,2204.03,1.79,17339388842590,6449002157,7576087472856,6568838399,1bb1bc9b78ae76d46563e2410d2f0566,
AS,aom,av2,0,A1,TimeLapse,3840x2160,60.0000,10,1920x1080,210,206.481518,31.408274,38.340444,39.929146,12.461302,9.883046,41.308886,39.108734,27.510384,33.296307,31.336904,38.335641,39.843835,0.032779,1531.05,1.19,10344209184109,4682963930,4086997527584,3449158383,668e16b88aaade43bd3fa428ba128b78,
AS,aom,av2,0,A1,TimeLapse,3840x2160,60.0000,10,1920x1080,235,81.699224,28.866242,36.503702,37.714826,9.378723,7.873287,23.843034,22.245671,24.754170,30.867930,28.792242,36.494810,37.568540,0.045819,894.01,1.20,5852212804858,3658755205,2379455080415,3556982477,03d4fbebe45835a8fc0fc2e2088fda2d,
AS,aom,av2,0,A1,TimeLapse,3840x2160,60.0000,10,1280x720,110,4613.234150,37.016549,44.927917,46.860670,24.731253,17.234388,79.408168,76.943114,35.761777,39.606993,36.936257,44.921324,46.841882,0.015022,4480.31,1.71,27347659915892,7706762540,11715386948058,4527586236,d9ac71a177ed46308a485af976359753,
AS,aom,av2,0,A1,TimeLapse,3840x2160,60.0000,10,1280x720,135,1971.364021,35.979929,43.280751,45.048099,21.340814,15.488130,72.167864,69.703736,33.821544,38.253873,35.910937,43.276457,45.017449,0.020525,3471.68,1.22,21322365886545,5334645279,9073870012398,3297595508,badf97f8fba591a8325446d57b84791f,
AS,aom,av2,0,A1,TimeLapse,3840x2160,60.0000,10,1280x720,160,800.400830,34.369597,41.368256,43.017043,17.681952,13.237028,60.495297,58.090372,31.321650,36.463898,34.305879,41.364078,42.956695,0.024951,2234.93,0.89,13950209501793,3733796181,5853965955529,2433084151,50de7adb0a23d98e9079e1ca5a48507a,
AS,aom,av2,0,A1,TimeLapse,3840x2160,60.0000,10,1280x720,185,303.141781,32.284706,39.432543,41.084031,14.051375,10.838812,45.365945,43.306862,28.596498,34.367203,32.214483,39.428112,40.999912,0.028441,1373.98,0.63,8718672629901,2635531468,3620623553326,1829912335,d33a639ba097d8fcfd193226814e98c8,
AS,aom,av2,0,A1,TimeLapse,3840x2160,60.0000,10,1280x720,210,116.855452,29.984281,37.620055,39.179430,10.738818,8.729774,29.849037,28.239875,25.969794,32.167133,29.905275,37.616115,39.101274,0.042651,815.92,0.43,5483007066397,2057798844,2182548065644,1256447839,0bf527084e662598242158b1382fca74,
AS,aom,av2,0,A1,TimeLapse,3840x2160,60.0000,10,1280x720,235,49.800046,27.621595,35.912009,37.193969,8.047170,7.017970,15.755964,14.653361,23.509765,29.860836,27.548916,35.905564,37.093533,0.065292,493.89,0.43,3283763827806,1566441991,1316745027817,1282550117,178464670a80da3b2edf4a67ab8a9b48,
AS,aom,av2,0,A1,TimeLapse,3840x2160,60.0000,10,960x540,110,2764.380235,34.579757,43.592101,45.737641,23.157127,14.728723,66.453477,63.937671,31.796109,37.800912,34.485984,43.586244,45.712703,0.017109,3340.35,1.08,19947953283926,4502244083,8724050766716,2892218316,0a655a726e4573f433236e17bfbb0c4e,
AS,aom,av2,0,A1,TimeLapse,3840x2160,60.0000,10,960x540,135,1221.379236,33.913772,42.219561,44.163489,19.866158,13.564814,59.007306,56.525954,30.784271,36.747474,33.832405,42.216073,44.123077,0.023635,2209.55,0.72,13384410966236,3041458382,5780818269333,1919904653,a2deac4eb67bd4279b48f15d8fdec7f3,
AS,aom,av2,0,A1,TimeLapse,3840x2160,60.0000,10,960x540,160,510.420041,32.740410,40.568690,42.325329,16.264828,11.831357,47.570941,45.300475,29.181473,35.266361,32.663960,40.564687,42.250437,0.027280,1411.92,0.49,8837329528000,2137738267,3708630309312,1351233726,b0608c57d3f583d50ce569a90d6ea676,
AS,aom,av2,0,A1,TimeLapse,3840x2160,60.0000,10,960x540,185,199.679705,31.028799,38.848292,40.555377,12.737860,9.809389,33.687982,31.870437,27.111756,33.405065,30.951910,38.843657,40.456713,0.035811,796.45,0.32,5367899679618,1581187722,2267919512062,973561938,b8f9a11cb801d75f1345a0053dbdfd76,
AS,aom,av2,0,A1,TimeLapse,3840x2160,60.0000,10,960x540,210,81.201260,28.978872,37.068510,38.554764,9.675486,7.985668,20.690314,19.556996,24.872142,31.269698,28.899324,37.063483,38.455602,0.056733,500.90,0.28,3289134652462,1214584607,1343711283615,792285079,ce815871bcf773fc8f81978f7cb1145f,
AS,aom,av2,0,A1,TimeLapse,3840x2160,60.0000,10,960x540,235,37.214478,26.703027,35.340926,36.654399,7.157883,6.407729,8.640382,7.946288,22.584817,29.118283,26.628060,35.329013,36.578574,0.105402,335.03,0.24,2185437575534,999199600,897141797766,682455661,0e2a44a805f3e79f830048cff8c89a18,
AS,aom,av2,0,A1,TimeLapse,3840x2160,60.0000,10,640x360,110,1298.213171,32.006798,42.268122,44.460468,19.847112,12.008571,42.144270,40.030903,28.036764,35.729423,31.909735,42.263714,44.419546,0.018955,1753.00,0.44,10725776101904,2009243017,4577123429651,1147509916,8bdffcbe04f314d3a00dac68d315f273,
AS,aom,av2,0,A1,TimeLapse,3840x2160,60.0000,10,640x360,135,603.210943,31.594958,41.077516,43.048398,17.223069,11.302352,35.768553,33.866348,27.551795,34.933002,31.507990,41.074626,42.990009,0.025139,1128.76,0.27,7562292053782,1341478857,3177829789134,780692882,736973a499044b3b17b701f16f4da259,
AS,aom,av2,0,A1,TimeLapse,3840x2160,60.0000,10,640x360,160,262.323523,30.756154,39.603999,41.388063,14.035869,10.073446,26.606712,24.988635,26.624219,33.699401,30.676077,39.600412,41.309527,0.028855,734.95,0.16,4726750214706,875261011,1927434668485,437664070,69cdcf2df84b85636670c3df36d8af8f,
AS,aom,av2,0,A1,TimeLapse,3840x2160,60.0000,10,640x360,185,109.374933,29.418502,38.052574,39.605955,10.926134,8.522149,16.895578,15.766358,25.221458,32.045402,29.337232,38.046452,39.510661,0.047803,355.20,0.09,2949492692605,630061107,1224920196185,341760287,506e067aaeba84d87e0329a0d9f282d4,
AS,aom,av2,0,A1,TimeLapse,3840x2160,60.0000,10,640x360,210,47.955737,27.636826,36.445880,37.829038,8.215171,7.025363,8.918559,8.270200,23.457945,30.120249,27.558042,36.441176,37.697234,0.087313,233.65,0.10,1578796550517,467375416,626049376919,277733691,7dd637f3d27805118a4ac96bd69fd1da,
AS,aom,av2,0,A1,TimeLapse,3840x2160,60.0000,10,640x360,235,24.828095,25.592580,34.849657,36.020301,6.147318,5.724800,1.115255,0.814427,21.520300,28.160345,25.515953,34.842604,35.936911,0.179642,124.56,0.07,1073990667392,417576889,436646366037,283816566,68e9209b730e53f726bd7067dc02ea75,
