TestCfg,EncodeMethod,CodecName,EncodePreset,Class,Name,Res,FPS,BitDepth,QP,POC,FrameType,Level,qindex,FrameSize,PSNR_Y,PSNR_U,PSNR_V,SSIM_Y(dB),MS-SSIM_Y(dB),VMAF_Y,VMAF_Y-NEG,PSNR-HVS,CIEDE2000,CAMBI
STILL,aom,av2,0,F1,animals_00.y4m,4032x3024,25,8,60,0, KEY ,1,60,5936055,48.920206,49.955551,51.053917,50.848408,34.621190,97.033285,96.410209,54.498448,48.110518,0.000000
STILL,aom,av2,0,F1,animals_00.y4m,4032x3024,25,8,85,0, KEY ,1,85,3902183,42.884172,45.988766,48.345604,44.931311,28.449375,96.268498,95.329879,49.780080,43.431179,0.000019
STILL,aom,av2,0,F1,animals_00.y4m,4032x3024,25,8,110,0, KEY ,1,110,2119862,36.786039,42.732005,45.797351,38.675476,22.136839,94.123755,92.796880,43.166067,38.783395,0.000603
STILL,aom,av2,0,F1,animals_00.y4m,4032x3024,25,8,135,0, KEY ,1,135,948306,32.164108,40.041828,43.512348,32.431731,17.573074,88.370367,86.505995,36.394544,34.955597,0.002699
STILL,aom,av2,0,F1,animals_00.y4m,4032x3024,25,8,160,0, KEY ,1,160,440484,28.743664,37.502916,41.313223,26.330099,14.235251,73.878190,71.845986,30.214034,31.928658,0.006080
STILL,aom,av2,0,F1,animals_00.y4m,4032x3024,25,8,185,0, KEY ,1,185,193119,25.308965,34.917368,39.088110,20.247811,10.624513,49.207497,47.499336,24.354633,28.789186,0.025200
STILL,aom,av2,0,F1,animals_03.y4m,4032x3024,25,8,60,0, KEY ,1,60,4119730,48.867461,50.765170,51.094669,46.303273,31.466122,96.660181,95.924727,52.790527,48.246191,0.000008
STILL,aom,av2,0,F1,animals_03.y4m,4032x3024,25,8,85,0, KEY ,1,85,2279722,42.931971,48.321254,48.671457,40.684737,25.287606,95.269048,94.274723,47.823145,44.182502,0.002541
STILL,aom,av2,0,F1,animals_03.y4m,4032x3024,25,8,110,0, KEY ,1,110,961414,37.827289,46.144890,46.664317,34.469307,19.676771,92.180870,90.627322,41.453622,40.507077,0.240312
STILL,aom,av2,0,F1,animals_03.y4m,4032x3024,25,8,135,0, KEY ,1,135,351597,34.270775,44.075705,44.776488,28.459950,15.266871,84.091563,82.036100,35.065942,37.637059,1.040650
STILL,aom,av2,0,F1,animals_03.y4m,4032x3024,25,8,160,0, KEY ,1,160,149818,31.777933,42.237999,42.718907,23.244620,12.253078,66.503323,64.792980,30.170339,35.347015,1.603309
STILL,aom,av2,0,F1,animals_03.y4m,4032x3024,25,8,185,0, KEY ,1,185,66397,29.147091,40.151003,40.232307,18.110447,9.619481,41.240587,40.045614,25.991533,32.822815,1.557345
STILL,aom,av2,0,F1,animals_09.y4m,4032x3024,25,8,60,0, KEY ,1,60,1125486,51.253669,55.630609,56.192923,44.025518,29.375560,96.512782,95.366352,50.799090,54.173980,0.015869
STILL,aom,av2,0,F1,animals_09.y4m,4032x3024,25,8,85,0, KEY ,1,85,565355,47.440638,53.193072,53.867037,38.060872,24.586473,95.205069,93.703320,46.223677,49.950337,0.053641
STILL,aom,av2,0,F1,animals_09.y4m,4032x3024,25,8,110,0, KEY ,1,110,273112,43.777778,50.926980,51.811526,32.220356,20.303994,91.748697,89.766051,41.390159,46.529127,0.188329
STILL,aom,av2,0,F1,animals_09.y4m,4032x3024,25,8,135,0, KEY ,1,135,117894,40.140558,48.367808,49.536530,26.094539,16.271438,82.298224,80.312337,36.672102,43.197459,0.566358
STILL,aom,av2,0,F1,animals_09.y4m,4032x3024,25,8,160,0, KEY ,1,160,47888,37.079092,45.330904,46.552582,20.547370,13.361967,64.626957,62.994113,33.096390,40.213324,0.697960
STILL,aom,av2,0,F1,animals_09.y4m,4032x3024,25,8,185,0, KEY ,1,185,21068,34.415485,41.685861,43.515150,15.876947,11.230999,45.943977,44.518114,30.200921,37.491494,0.976330
STILL,aom,av2,0,F1,buildings_02.y4m,4032x3024,25,8,60,0, KEY ,1,60,3001743,49.024124,52.880429,53.589048,41.990045,29.604232,97.200932,96.638857,50.275498,50.206158,0.794350
STILL,aom,av2,0,F1,buildings_02.y4m,4032x3024,25,8,85,0, KEY ,1,85,1560559,43.805462,50.496380,51.198575,35.598900,24.516695,96.800527,95.911062,46.456704,46.085805,6.910261
STILL,aom,av2,0,F1,buildings_02.y4m,4032x3024,25,8,110,0, KEY ,1,110,836153,39.941078,48.203451,48.983309,31.995370,22.204650,95.362542,94.075048,43.655429,43.215441,11.115240
STILL,aom,av2,0,F1,buildings_02.y4m,4032x3024,25,8,135,0, KEY ,1,135,452317,36.238732,45.974169,46.971752,29.299672,20.495255,91.435878,89.485956,40.206186,40.661921,11.233856
STILL,aom,av2,0,F1,buildings_02.y4m,4032x3024,25,8,160,0, KEY ,1,160,228389,32.282401,43.499584,44.564350,25.790324,18.108748,82.187599,79.482171,35.213066,37.797937,10.629201
STILL,aom,av2,0,F1,buildings_02.y4m,4032x3024,25,8,185,0, KEY ,1,185,102510,28.193348,40.786136,41.917921,21.271294,14.750845,65.214894,62.112378,29.169319,34.546297,5.917074
STILL,aom,av2,0,F1,buildings_03.y4m,4032x3024,25,8,60,0, KEY ,1,60,6415238,48.839552,50.868590,50.738978,50.178940,38.040610,97.106217,96.449122,55.405091,47.338314,0.001799
STILL,aom,av2,0,F1,buildings_03.y4m,4032x3024,25,8,85,0, KEY ,1,85,4428424,42.905587,47.759897,47.494467,44.240028,31.836685,96.407408,95.396263,50.884460,43.032101,0.002658
STILL,aom,av2,0,F1,buildings_03.y4m,4032x3024,25,8,110,0, KEY ,1,110,2756665,37.026594,45.102767,44.651163,38.115878,25.933987,94.436817,92.993557,45.007358,38.759863,0.004660
STILL,aom,av2,0,F1,buildings_03.y4m,4032x3024,25,8,135,0, KEY ,1,135,1470564,31.761303,42.522169,42.202020,31.886902,20.734156,88.857685,86.956475,37.911910,34.648865,0.010576
STILL,aom,av2,0,F1,buildings_03.y4m,4032x3024,25,8,160,0, KEY ,1,160,687454,27.354242,40.167667,39.702294,25.683150,16.027241,74.466428,72.442417,30.411189,30.946169,0.028521
STILL,aom,av2,0,F1,buildings_03.y4m,4032x3024,25,8,185,0, KEY ,1,185,287207,23.511301,38.214583,37.503527,19.551089,11.654392,49.369850,47.617563,23.584602,27.416552,0.060034
STILL,aom,av2,0,F1,church.y4m,6000x4000,25,8,60,0, KEY ,1,60,2030368,51.520703,52.157549,52.253385,44.963661,29.076345,96.437564,95.525679,49.363144,51.987068,0.538253
STILL,aom,av2,0,F1,church.y4m,6000x4000,25,8,85,0, KEY ,1,85,791615,47.836288,49.641766,49.817420,38.452331,24.823665,94.601613,93.355469,45.728199,48.518108,1.781247
STILL,aom,av2,0,F1,church.y4m,6000x4000,25,8,110,0, KEY ,1,110,371563,45.209977,47.364794,47.786335,33.402644,21.950383,90.807313,89.113302,42.649864,46.142004,2.136538
STILL,aom,av2,0,F1,church.y4m,6000x4000,25,8,135,0, KEY ,1,135,176711,42.187804,44.705940,45.507184,28.063689,18.736318,82.110133,80.099612,38.865286,43.550349,2.528022
STILL,aom,av2,0,F1,church.y4m,6000x4000,25,8,160,0, KEY ,1,160,79237,38.893351,41.798212,42.981704,22.740046,15.385575,65.118121,63.011811,34.898169,40.761778,2.783714
STILL,aom,av2,0,F1,church.y4m,6000x4000,25,8,185,0, KEY ,1,185,32168,35.637034,38.386911,40.216338,17.614108,12.263716,42.160560,40.317499,31.192963,37.708161,3.313596
STILL,aom,av2,0,F1,fireworks_01.y4m,4032x3024,25,8,60,0, KEY ,1,60,4426631,49.051122,54.966606,53.176722,42.047732,30.241441,96.431459,95.801563,53.194887,52.059053,0.000009
STILL,aom,av2,0,F1,fireworks_01.y4m,4032x3024,25,8,85,0, KEY ,1,85,2651460,42.966658,52.755307,51.564861,36.253828,23.990659,95.023117,94.057799,48.237464,47.594581,0.000092
STILL,aom,av2,0,F1,fireworks_01.y4m,4032x3024,25,8,110,0, KEY ,1,110,1060062,36.928220,50.252114,49.662507,29.741047,17.257663,91.432542,90.069535,40.754415,42.708503,0.001079
STILL,aom,av2,0,F1,fireworks_01.y4m,4032x3024,25,8,135,0, KEY ,1,135,221084,32.980176,47.472456,47.433554,23.252168,11.328933,82.877509,81.338608,33.717373,39.052116,0.250043
STILL,aom,av2,0,F1,fireworks_01.y4m,4032x3024,25,8,160,0, KEY ,1,160,50980,31.489660,44.337921,44.490631,17.224676,8.661723,66.674687,65.436148,30.336751,37.366472,9.137304
STILL,aom,av2,0,F1,fireworks_01.y4m,4032x3024,25,8,185,0, KEY ,1,185,22379,30.596132,41.119222,40.590908,14.656764,8.053443,51.316773,50.371222,28.651783,35.882845,12.323470
STILL,aom,av2,0,F1,flowerfield.y4m,3696x2448,25,8,60,0, KEY ,1,60,1317869,51.603319,51.744998,52.180752,48.862634,32.505066,96.859248,96.110656,52.964874,53.770432,0.002500
STILL,aom,av2,0,F1,flowerfield.y4m,3696x2448,25,8,85,0, KEY ,1,85,700060,47.480769,47.216124,47.805418,41.994140,27.510308,95.649112,94.576825,47.718253,48.861164,0.007245
STILL,aom,av2,0,F1,flowerfield.y4m,3696x2448,25,8,110,0, KEY ,1,110,365893,43.781521,43.296063,44.157600,36.134215,23.785486,92.836577,91.236764,42.532108,45.262058,0.007842
STILL,aom,av2,0,F1,flowerfield.y4m,3696x2448,25,8,135,0, KEY ,1,135,191415,40.138452,39.651020,40.693351,30.288202,20.126414,85.499413,83.570037,37.343657,41.782607,0.006873
STILL,aom,av2,0,F1,flowerfield.y4m,3696x2448,25,8,160,0, KEY ,1,160,98277,36.314273,36.178277,37.267183,24.444386,16.430847,69.826505,67.844904,32.374576,38.167238,0.009404
STILL,aom,av2,0,F1,flowerfield.y4m,3696x2448,25,8,185,0, KEY ,1,185,47913,32.412333,32.900437,33.763653,19.026992,12.885533,45.727009,43.933523,27.811580,34.501757,0.023716
STILL,aom,av2,0,F1,flowers_08.y4m,4032x3024,25,8,60,0, KEY ,1,60,5463427,48.842126,50.178688,51.342379,50.755008,33.394893,97.113364,96.517488,54.084872,48.981318,0.010003
STILL,aom,av2,0,F1,flowers_08.y4m,4032x3024,25,8,85,0, KEY ,1,85,3413955,42.930202,45.768440,47.748865,44.703716,27.345110,96.426325,95.511492,49.016222,43.985534,0.016661
STILL,aom,av2,0,F1,flowers_08.y4m,4032x3024,25,8,110,0, KEY ,1,110,1912719,37.693669,42.017882,44.401216,38.641265,22.414264,94.562524,93.170167,42.881968,39.665378,0.036009
STILL,aom,av2,0,F1,flowers_08.y4m,4032x3024,25,8,135,0, KEY ,1,135,995860,33.229619,38.872018,41.349361,32.521931,18.480159,89.172087,87.165488,36.610325,35.942504,0.064007
STILL,aom,av2,0,F1,flowers_08.y4m,4032x3024,25,8,160,0, KEY ,1,160,476673,29.203973,35.795630,38.411335,26.627841,14.603899,75.174047,73.065116,30.362630,32.489624,0.079253
STILL,aom,av2,0,F1,flowers_08.y4m,4032x3024,25,8,185,0, KEY ,1,185,213662,25.483285,32.512497,35.379912,20.469497,10.726008,51.709065,49.904038,24.334844,29.056504,0.163720
STILL,aom,av2,0,F1,flowers_12.y4m,4032x3024,25,8,60,0, KEY ,1,60,4265914,48.720661,51.996908,53.091630,51.872934,33.806814,97.124358,96.622139,54.246582,49.192267,0.000104
STILL,aom,av2,0,F1,flowers_12.y4m,4032x3024,25,8,85,0, KEY ,1,85,2455704,42.995637,49.110075,50.543863,45.862306,27.879508,96.430627,95.695318,49.173330,44.492070,0.000244
STILL,aom,av2,0,F1,flowers_12.y4m,4032x3024,25,8,110,0, KEY ,1,110,1229651,38.093598,46.367305,47.983826,39.692062,22.842804,94.940991,93.589600,42.643072,40.423913,0.001373
STILL,aom,av2,0,F1,flowers_12.y4m,4032x3024,25,8,135,0, KEY ,1,135,580452,34.306462,43.487247,45.267327,33.538480,18.903539,89.976593,88.167592,36.330076,37.046799,0.018195
STILL,aom,av2,0,F1,flowers_12.y4m,4032x3024,25,8,160,0, KEY ,1,160,288716,31.035856,40.724751,42.729089,27.501831,15.338045,77.817886,75.836608,30.501916,34.033486,0.044125
STILL,aom,av2,0,F1,flowers_12.y4m,4032x3024,25,8,185,0, KEY ,1,185,140239,27.553676,37.735748,40.072361,21.505949,11.635852,57.573132,55.728655,25.133456,30.811230,0.057604
STILL,aom,av2,0,F1,food_02.y4m,4032x3024,25,8,60,0, KEY ,1,60,3227976,48.643319,53.305717,54.206427,45.792976,29.993927,97.044644,96.364913,52.397777,50.778833,0.000348
STILL,aom,av2,0,F1,food_02.y4m,4032x3024,25,8,85,0, KEY ,1,85,1523391,43.198796,50.487266,51.885580,39.226055,23.743971,96.333223,95.309402,46.891026,45.910037,0.003718
STILL,aom,av2,0,F1,food_02.y4m,4032x3024,25,8,110,0, KEY ,1,110,656787,39.127405,47.787362,49.632772,33.054326,18.597634,94.218456,92.756949,40.558868,42.273358,0.027782
STILL,aom,av2,0,F1,food_02.y4m,4032x3024,25,8,135,0, KEY ,1,135,263081,36.003319,45.021334,47.189783,27.834333,15.309730,87.811501,85.946870,35.616597,39.402860,0.143713
STILL,aom,av2,0,F1,food_02.y4m,4032x3024,25,8,160,0, KEY ,1,160,115728,33.361591,42.010576,44.349730,22.673042,12.824421,74.302484,72.212926,31.597199,36.943478,0.304492
STILL,aom,av2,0,F1,food_02.y4m,4032x3024,25,8,185,0, KEY ,1,185,47766,30.425612,38.584490,41.067437,17.467743,10.139669,54.538056,52.585548,27.498072,34.204933,1.022406
STILL,aom,av2,0,F1,fountain.y4m,6406x4270,25,8,60,0, KEY ,1,60,7627055,48.880051,51.868348,52.289962,49.129660,30.091417,96.676171,95.762090,51.967448,51.262123,0.000048
STILL,aom,av2,0,F1,fountain.y4m,6406x4270,25,8,85,0, KEY ,1,85,4033197,43.291017,49.062317,49.666815,43.238068,24.157434,95.345860,94.122365,47.107346,46.293607,0.000621
STILL,aom,av2,0,F1,fountain.y4m,6406x4270,25,8,110,0, KEY ,1,110,1557858,38.435199,46.238068,46.925815,37.349020,18.675512,92.094275,90.523383,41.140430,41.874626,0.001906
STILL,aom,av2,0,F1,fountain.y4m,6406x4270,25,8,135,0, KEY ,1,135,496877,35.334675,43.346570,43.969769,31.513682,15.259987,84.901034,82.845446,36.227932,38.875351,0.416585
STILL,aom,av2,0,F1,fountain.y4m,6406x4270,25,8,160,0, KEY ,1,160,225093,33.412215,40.148154,40.690081,26.201699,13.333333,70.282113,68.054251,32.255930,36.807237,0.601978
STILL,aom,av2,0,F1,fountain.y4m,6406x4270,25,8,185,0, KEY ,1,185,97512,30.910991,36.564914,37.060370,21.073260,10.889755,46.628390,44.686954,28.019559,34.211321,0.548112
STILL,aom,av2,0,F1,lady.y4m,4480x6720,25,8,60,0, KEY ,1,60,5679936,48.760753,55.787525,55.540424,45.610190,27.716916,96.362726,95.555653,49.941736,50.212152,0.125435
STILL,aom,av2,0,F1,lady.y4m,4480x6720,25,8,85,0, KEY ,1,85,1917665,43.260237,53.821855,53.411054,38.864627,21.376131,95.093247,94.001222,44.797680,45.199252,0.906842
STILL,aom,av2,0,F1,lady.y4m,4480x6720,25,8,110,0, KEY ,1,110,409573,40.490415,51.782533,51.209075,33.370463,17.992514,92.167369,90.685352,41.117620,42.546749,5.626623
STILL,aom,av2,0,F1,lady.y4m,4480x6720,25,8,135,0, KEY ,1,135,164422,39.140718,49.439709,48.880045,28.861837,16.357836,84.413372,82.610657,38.431202,41.216145,5.776741
STILL,aom,av2,0,F1,lady.y4m,4480x6720,25,8,160,0, KEY ,1,160,67648,37.494138,46.682718,46.175037,23.931380,14.512829,68.733031,67.091268,35.502739,39.597652,5.302739
STILL,aom,av2,0,F1,lady.y4m,4480x6720,25,8,185,0, KEY ,1,185,26756,35.495773,43.613998,43.452335,18.806795,12.471552,46.234574,44.938131,32.507218,37.597916,4.755465
STILL,aom,av2,0,F1,landscape_05.y4m,4032x3024,25,8,60,0, KEY ,1,60,4500470,48.870886,51.187925,51.897692,48.373301,32.081723,96.978894,96.369123,53.506396,49.793169,0.000001
STILL,aom,av2,0,F1,landscape_05.y4m,4032x3024,25,8,85,0, KEY ,1,85,2692648,43.144858,47.629881,48.738504,42.406429,26.104773,96.118148,95.221809,48.407703,44.748535,0.000071
STILL,aom,av2,0,F1,landscape_05.y4m,4032x3024,25,8,110,0, KEY ,1,110,1368374,37.990877,44.327471,45.570781,36.525456,20.653249,93.914545,92.549041,41.910809,40.309413,0.015874
STILL,aom,av2,0,F1,landscape_05.y4m,4032x3024,25,8,135,0, KEY ,1,135,655886,34.153056,41.251592,42.532548,30.799589,16.949180,87.413187,85.708774,36.014194,36.893019,0.056457
STILL,aom,av2,0,F1,landscape_05.y4m,4032x3024,25,8,160,0, KEY ,1,160,319653,30.724402,38.117630,39.616484,24.913701,13.698791,72.521611,70.693537,30.458688,33.849854,0.123300
STILL,aom,av2,0,F1,landscape_05.y4m,4032x3024,25,8,185,0, KEY ,1,185,142891,27.061451,35.292909,36.603783,19.074110,10.287626,48.595994,47.062896,24.997793,30.678217,0.360067
STILL,aom,av2,0,F1,landscape_15.y4m,4032x3024,25,8,60,0, KEY ,1,60,2962762,49.561615,53.426930,53.990071,44.138156,30.409293,97.036835,96.318092,51.219248,50.603633,0.997189
STILL,aom,av2,0,F1,landscape_15.y4m,4032x3024,25,8,85,0, KEY ,1,85,1723617,44.396469,50.960354,51.602867,38.259122,25.371885,96.260343,95.229109,47.156185,46.316209,2.804920
STILL,aom,av2,0,F1,landscape_15.y4m,4032x3024,25,8,110,0, KEY ,1,110,889598,39.620949,48.471711,49.322332,33.856191,21.141799,94.067812,92.561061,42.471832,42.592370,3.434251
STILL,aom,av2,0,F1,landscape_15.y4m,4032x3024,25,8,135,0, KEY ,1,135,417494,35.605868,45.817880,47.157508,28.913331,17.545834,87.879315,85.943057,37.234921,39.346964,3.384270
STILL,aom,av2,0,F1,landscape_15.y4m,4032x3024,25,8,160,0, KEY ,1,160,193469,32.143026,43.072331,45.020025,23.993262,14.328006,74.136468,71.971888,31.950032,36.368690,3.326240
STILL,aom,av2,0,F1,landscape_15.y4m,4032x3024,25,8,185,0, KEY ,1,185,82191,28.733212,40.064968,42.358085,19.191600,11.293119,52.340102,50.408538,26.833361,33.369229,3.151718
STILL,aom,av2,0,F1,landscape_16.y4m,4032x3024,25,8,60,0, KEY ,1,60,1615537,50.445240,56.936221,57.844876,42.685515,29.641883,96.869765,96.104817,51.367490,52.808197,0.000001
STILL,aom,av2,0,F1,landscape_16.y4m,4032x3024,25,8,85,0, KEY ,1,85,902158,46.248275,54.741313,55.509736,36.532440,24.575476,96.043904,94.823970,46.612611,48.565743,0.000070
STILL,aom,av2,0,F1,landscape_16.y4m,4032x3024,25,8,110,0, KEY ,1,110,484115,42.166054,52.740011,53.394225,30.689892,20.074253,93.579118,91.851207,41.438262,45.013776,0.000270
STILL,aom,av2,0,F1,landscape_16.y4m,4032x3024,25,8,135,0, KEY ,1,135,242531,38.217345,50.642571,51.281743,25.436868,16.219930,86.537401,84.431230,36.477003,41.661065,0.022040
STILL,aom,av2,0,F1,landscape_16.y4m,4032x3024,25,8,160,0, KEY ,1,160,115650,34.535368,48.162794,48.338594,21.257303,13.164613,70.427792,68.491941,31.910524,37.992223,0.148201
STILL,aom,av2,0,F1,landscape_16.y4m,4032x3024,25,8,185,0, KEY ,1,185,50069,30.962599,46.331325,47.209319,16.512808,10.226333,46.823470,45.753179,27.558852,35.355000,0.613362
STILL,aom,av2,0,F1,landscape_18.y4m,4032x3024,25,8,60,0, KEY ,1,60,2690884,49.632798,54.363745,55.841903,40.972911,29.897804,96.971235,96.212475,50.277472,51.118094,1.163847
STILL,aom,av2,0,F1,landscape_18.y4m,4032x3024,25,8,85,0, KEY ,1,85,1555187,44.614891,52.132225,53.941348,35.684300,25.629246,96.040120,94.950368,47.316059,47.163664,1.287406
STILL,aom,av2,0,F1,landscape_18.y4m,4032x3024,25,8,110,0, KEY ,1,110,686042,39.450854,49.908193,52.063509,31.603368,20.972505,93.579248,92.049668,43.079370,43.324316,1.329729
STILL,aom,av2,0,F1,landscape_18.y4m,4032x3024,25,8,135,0, KEY ,1,135,266073,35.887644,47.752809,50.123555,27.268370,17.064796,86.755907,84.749993,37.725845,40.401971,1.340976
STILL,aom,av2,0,F1,landscape_18.y4m,4032x3024,25,8,160,0, KEY ,1,160,111828,33.105634,45.349281,47.603789,22.294270,13.969604,70.969440,68.941357,32.897800,37.823163,1.440184
STILL,aom,av2,0,F1,landscape_18.y4m,4032x3024,25,8,185,0, KEY ,1,185,42489,30.238055,42.920471,45.699811,17.367096,11.162947,48.299098,46.583471,28.500104,35.236614,1.584861
STILL,aom,av2,0,F1,landscape_25.y4m,4032x3024,25,8,60,0, KEY ,1,60,5271799,48.975054,49.345509,50.906992,42.758181,31.589585,96.576570,95.711159,53.262745,47.134383,0.004907
STILL,aom,av2,0,F1,landscape_25.y4m,4032x3024,25,8,85,0, KEY ,1,85,3269772,43.014657,45.747384,48.755469,37.069963,25.380116,95.028846,93.896229,48.594830,42.853461,0.005142
STILL,aom,av2,0,F1,landscape_25.y4m,4032x3024,25,8,110,0, KEY ,1,110,1615815,37.013925,44.049767,47.406260,30.813615,19.010678,92.019762,90.117443,41.867195,39.248944,0.011800
STILL,aom,av2,0,F1,landscape_25.y4m,4032x3024,25,8,135,0, KEY ,1,135,534233,32.194857,42.641393,46.153805,24.417173,12.861524,81.865052,79.833773,34.228614,35.805860,0.447752
STILL,aom,av2,0,F1,landscape_25.y4m,4032x3024,25,8,160,0, KEY ,1,160,111474,29.101785,41.538466,44.863628,18.540070,8.154949,63.094082,61.359235,28.375432,33.323905,3.691805
STILL,aom,av2,0,F1,landscape_25.y4m,4032x3024,25,8,185,0, KEY ,1,185,31188,27.775916,39.989050,42.696236,14.436240,6.503500,43.489540,42.388552,25.879280,31.931136,6.904272
STILL,aom,av2,0,F1,landscape_26.y4m,4032x3024,25,8,60,0, KEY ,1,60,3157508,49.210920,53.191984,53.356252,43.596159,29.932408,96.909658,96.013892,50.963694,50.191969,0.522206
STILL,aom,av2,0,F1,landscape_26.y4m,4032x3024,25,8,85,0, KEY ,1,85,1714181,43.760309,51.211519,51.527939,37.740090,24.617681,95.881941,94.629928,46.960166,45.956134,0.653967
STILL,aom,av2,0,F1,landscape_26.y4m,4032x3024,25,8,110,0, KEY ,1,110,763870,38.995205,49.337343,49.905246,32.732852,20.243032,93.119783,91.364631,42.263237,42.253194,0.700436
STILL,aom,av2,0,F1,landscape_26.y4m,4032x3024,25,8,135,0, KEY ,1,135,316624,35.558779,47.420459,48.165428,27.675801,16.759862,85.334874,83.179666,37.156124,39.473476,0.736787
STILL,aom,av2,0,F1,landscape_26.y4m,4032x3024,25,8,160,0, KEY ,1,160,136533,32.575660,45.292866,46.107447,22.464754,13.600123,68.979152,66.705377,32.241880,36.908279,0.667085
STILL,aom,av2,0,F1,landscape_26.y4m,4032x3024,25,8,185,0, KEY ,1,185,52683,29.423378,42.534706,43.536823,17.217741,10.334506,44.186804,42.311972,27.463194,34.128552,0.809928
STILL,aom,av2,0,F1,landscape_28.y4m,4032x3024,25,8,60,0, KEY ,1,60,3462208,49.078287,51.278054,52.898436,39.952940,29.643574,97.095018,96.513372,51.106906,50.330481,0.395163
STILL,aom,av2,0,F1,landscape_28.y4m,4032x3024,25,8,85,0, KEY ,1,85,1872407,43.661103,48.194819,49.971108,34.156992,23.879283,96.413394,95.541667,46.705962,46.408042,1.676219
STILL,aom,av2,0,F1,landscape_28.y4m,4032x3024,25,8,110,0, KEY ,1,110,935470,39.180296,45.353596,47.082428,30.192719,19.175342,94.768902,93.359281,41.298619,42.942393,4.775124
STILL,aom,av2,0,F1,landscape_28.y4m,4032x3024,25,8,135,0, KEY ,1,135,435874,35.386348,42.783353,44.421546,27.123157,16.536847,89.378824,87.535514,36.923391,39.926771,9.926685
STILL,aom,av2,0,F1,landscape_28.y4m,4032x3024,25,8,160,0, KEY ,1,160,198783,32.013649,40.301887,41.905391,23.844758,14.466049,76.485542,74.504963,32.253092,37.031966,10.129360
STILL,aom,av2,0,F1,landscape_28.y4m,4032x3024,25,8,185,0, KEY ,1,185,86161,28.693060,37.542593,39.614624,18.743924,11.867968,54.960537,53.168003,27.128691,33.913339,7.230628
STILL,aom,av2,0,F1,lodge.y4m,6000x4000,25,8,60,0, KEY ,1,60,6992970,48.768000,51.255923,51.693384,45.554030,29.829930,96.606645,95.639007,51.345166,49.576317,0.000002
STILL,aom,av2,0,F1,lodge.y4m,6000x4000,25,8,85,0, KEY ,1,85,3743152,43.571239,47.308973,48.371736,39.615574,24.373138,95.052719,93.744653,46.896797,44.736001,0.013696
STILL,aom,av2,0,F1,lodge.y4m,6000x4000,25,8,110,0, KEY ,1,110,1773700,39.148016,43.736192,45.408799,34.352097,19.741468,91.212867,89.644493,41.701552,40.806971,0.474082
STILL,aom,av2,0,F1,lodge.y4m,6000x4000,25,8,135,0, KEY ,1,135,848074,35.515330,40.682469,42.725796,28.989170,16.418975,82.292702,80.434127,36.427150,37.689413,0.816963
STILL,aom,av2,0,F1,lodge.y4m,6000x4000,25,8,160,0, KEY ,1,160,366483,31.847621,38.004729,40.366117,23.434151,12.962437,62.773418,60.908350,30.815570,34.650641,0.900067
STILL,aom,av2,0,F1,lodge.y4m,6000x4000,25,8,185,0, KEY ,1,185,124169,28.351007,35.548386,38.307727,17.811190,9.493914,32.487067,31.342286,25.656980,31.613966,1.117072
STILL,aom,av2,0,F1,party.y4m,6720x4480,25,8,60,0, KEY ,1,60,5164393,48.626035,56.812306,57.099946,44.923261,27.310694,96.782193,96.130426,49.595081,50.556694,0.000022
STILL,aom,av2,0,F1,party.y4m,6720x4480,25,8,85,0, KEY ,1,85,1345380,43.197510,55.115579,55.438683,37.954522,20.882538,96.349577,95.476926,44.321944,45.303783,0.731717
STILL,aom,av2,0,F1,party.y4m,6720x4480,25,8,110,0, KEY ,1,110,239387,41.070135,53.117907,53.515813,32.046073,17.891193,94.999829,93.687052,40.994749,43.167828,7.329004
STILL,aom,av2,0,F1,party.y4m,6720x4480,25,8,135,0, KEY ,1,135,94655,40.198722,50.736644,51.203182,27.350989,16.814896,90.765846,89.145142,39.411363,42.268298,9.190553
STILL,aom,av2,0,F1,party.y4m,6720x4480,25,8,160,0, KEY ,1,160,45044,39.065230,47.230575,47.713457,23.226626,15.966988,82.430571,80.390164,37.545894,40.808506,9.823278
STILL,aom,av2,0,F1,party.y4m,6720x4480,25,8,185,0, KEY ,1,185,20985,37.245695,43.399568,44.816076,19.722067,14.836299,66.691914,64.545898,34.722942,38.861403,9.753169
STILL,aom,av2,0,F1,river.y4m,5184x3456,25,8,60,0, KEY ,1,60,2639104,48.711425,53.093944,53.712162,46.392592,28.075994,95.809421,94.822800,49.963277,48.442026,0.000080
STILL,aom,av2,0,F1,river.y4m,5184x3456,25,8,85,0, KEY ,1,85,703426,44.286435,50.311062,51.299936,40.077627,22.450372,94.003346,92.470835,45.050537,44.592495,0.213585
STILL,aom,av2,0,F1,river.y4m,5184x3456,25,8,110,0, KEY ,1,110,289552,42.660125,47.512181,48.964082,33.949017,20.103040,89.664764,87.917228,41.709916,42.812533,0.490356
STILL,aom,av2,0,F1,river.y4m,5184x3456,25,8,135,0, KEY ,1,135,142683,40.764151,44.553960,46.911322,28.319526,17.894865,80.234988,78.467780,38.270517,40.946395,0.646366
STILL,aom,av2,0,F1,river.y4m,5184x3456,25,8,160,0, KEY ,1,160,68949,38.163703,41.715095,44.959210,23.233161,15.348328,63.596442,61.781089,34.535990,38.620240,0.774988
STILL,aom,av2,0,F1,river.y4m,5184x3456,25,8,185,0, KEY ,1,185,30646,34.999534,38.883144,43.089187,18.446607,12.493986,39.749197,38.277298,30.768810,35.985976,0.955392
STILL,aom,av2,0,F1,santa.y4m,5616x3744,25,8,60,0, KEY ,1,60,2710254,48.815009,53.974386,53.387628,45.471129,27.694697,96.307207,95.420632,49.425428,51.103409,0.337934
STILL,aom,av2,0,F1,santa.y4m,5616x3744,25,8,85,0, KEY ,1,85,687498,44.568222,51.779995,51.195228,38.846726,22.416944,94.699699,93.514515,44.958107,47.087706,2.544518
STILL,aom,av2,0,F1,santa.y4m,5616x3744,25,8,110,0, KEY ,1,110,269962,43.057594,49.707190,48.876074,34.195590,20.525402,91.035974,89.453740,42.410685,45.411259,3.132209
STILL,aom,av2,0,F1,santa.y4m,5616x3744,25,8,135,0, KEY ,1,135,130467,41.365927,47.182985,46.054621,29.416902,18.569593,82.995829,81.067640,39.432076,43.574405,3.131396
STILL,aom,av2,0,F1,santa.y4m,5616x3744,25,8,160,0, KEY ,1,160,62176,39.081222,44.199990,42.955566,24.296258,16.166965,67.225492,65.069623,35.983871,41.167689,2.940947
STILL,aom,av2,0,F1,santa.y4m,5616x3744,25,8,185,0, KEY ,1,185,28071,36.358691,40.595890,39.377092,19.314855,13.648774,42.793815,40.727926,32.442640,38.094352,2.864994
STILL,aom,av2,0,F1,seafood.y4m,5184x3456,25,8,60,0, KEY ,1,60,4724138,48.667058,52.541327,52.638957,47.933561,29.713944,96.657895,95.825229,51.629369,49.018333,0.000000
STILL,aom,av2,0,F1,seafood.y4m,5184x3456,25,8,85,0, KEY ,1,85,2142384,43.003093,49.448697,49.707132,41.459007,23.351948,95.224421,94.079159,46.294900,44.286846,0.119062
STILL,aom,av2,0,F1,seafood.y4m,5184x3456,25,8,110,0, KEY ,1,110,764034,39.218033,46.472939,46.825070,35.306414,18.962742,92.098496,90.484052,41.040772,40.953493,1.266129
STILL,aom,av2,0,F1,seafood.y4m,5184x3456,25,8,135,0, KEY ,1,135,355201,36.796087,43.514070,43.973049,30.281845,16.789067,84.630010,82.607067,36.854123,38.656407,1.328790
STILL,aom,av2,0,F1,seafood.y4m,5184x3456,25,8,160,0, KEY ,1,160,161583,33.963673,40.686548,41.205256,25.111706,14.096931,68.625951,66.516292,32.096485,36.171916,1.357137
STILL,aom,av2,0,F1,seafood.y4m,5184x3456,25,8,185,0, KEY ,1,185,66293,30.864437,37.873366,38.181503,19.758079,11.037267,42.928950,41.147280,27.559633,33.374032,1.414665
STILL,aom,av2,0,F1,snow_00.y4m,4032x3024,25,8,60,0, KEY ,1,60,3831983,48.679788,53.781995,54.303033,43.890293,29.241295,96.892507,96.131959,51.938894,50.652232,0.000000
STILL,aom,av2,0,F1,snow_00.y4m,4032x3024,25,8,85,0, KEY ,1,85,2045730,42.662740,50.896343,51.615865,37.351833,22.723474,96.110160,95.055021,46.354154,45.645402,0.000004
STILL,aom,av2,0,F1,snow_00.y4m,4032x3024,25,8,110,0, KEY ,1,110,723684,37.511137,48.727996,49.473245,31.189373,16.628829,93.933809,92.505345,39.902737,41.470109,0.000370
STILL,aom,av2,0,F1,snow_00.y4m,4032x3024,25,8,135,0, KEY ,1,135,228823,34.835240,46.802430,47.497208,26.697827,13.943108,87.525929,85.723387,36.009922,39.166279,0.038140
STILL,aom,av2,0,F1,snow_00.y4m,4032x3024,25,8,160,0, KEY ,1,160,105135,32.957802,44.708727,45.586229,22.246808,12.540757,73.743411,71.842212,32.663470,37.463523,0.051580
STILL,aom,av2,0,F1,snow_00.y4m,4032x3024,25,8,185,0, KEY ,1,185,46629,30.513224,42.349794,43.613157,17.726328,10.803876,52.114054,50.551982,28.609049,35.374863,0.072840
STILL,aom,av2,0,F1,trees.y4m,4928x3264,25,8,60,0, KEY ,1,60,3544213,49.170844,52.506190,52.460401,47.389985,31.403502,96.884279,96.113643,52.729120,48.112488,0.000226
STILL,aom,av2,0,F1,trees.y4m,4928x3264,25,8,85,0, KEY ,1,85,1865519,44.559613,49.287208,49.218758,41.216006,26.159398,95.890988,94.661416,47.655504,44.203898,0.002389
STILL,aom,av2,0,F1,trees.y4m,4928x3264,25,8,110,0, KEY ,1,110,976983,40.766990,45.995389,46.133910,35.315208,21.548697,93.275618,91.426778,42.053037,40.966684,0.006601
STILL,aom,av2,0,F1,trees.y4m,4928x3264,25,8,135,0, KEY ,1,135,503636,36.923383,42.669519,43.407742,29.035359,17.042334,85.855132,83.598106,36.126316,37.724076,0.026803
STILL,aom,av2,0,F1,trees.y4m,4928x3264,25,8,160,0, KEY ,1,160,242324,33.012077,39.703319,41.249697,22.872672,12.904171,69.165238,67.031508,30.669821,34.502297,0.105713
STILL,aom,av2,0,F1,trees.y4m,4928x3264,25,8,185,0, KEY ,1,185,101957,29.191024,37.278338,39.249561,16.964912,9.348173,44.418991,42.996224,25.821652,31.430320,0.335807
STILL,aom,av2,0,F1,underwater_01.y4m,4032x3024,25,8,60,0, KEY ,1,60,3680955,48.789570,50.783247,51.430790,48.499715,31.324521,96.608075,95.747205,53.319869,48.906448,0.000833
STILL,aom,av2,0,F1,underwater_01.y4m,4032x3024,25,8,85,0, KEY ,1,85,1808775,42.965046,47.867793,48.622472,42.268968,25.158417,94.861701,93.799811,47.761471,44.323428,0.013308
STILL,aom,av2,0,F1,underwater_01.y4m,4032x3024,25,8,110,0, KEY ,1,110,716913,38.676656,44.684661,45.607529,35.975589,20.284177,91.277294,89.665477,41.191129,40.599248,0.031582
STILL,aom,av2,0,F1,underwater_01.y4m,4032x3024,25,8,135,0, KEY ,1,135,309890,35.917726,41.132384,42.367775,29.777046,16.938110,81.736470,79.828004,35.607063,37.835876,0.053885
STILL,aom,av2,0,F1,underwater_01.y4m,4032x3024,25,8,160,0, KEY ,1,160,147290,33.286849,37.460066,39.075016,23.677676,13.647427,61.912046,60.327138,30.733311,35.073402,0.062306
STILL,aom,av2,0,F1,underwater_01.y4m,4032x3024,25,8,185,0, KEY ,1,185,63183,30.163591,34.039547,36.211606,17.699528,10.156403,33.578086,32.646960,26.276126,32.086280,0.146554
STILL,aom,av2,0,F2,Adventure_with_the_Windmills.y4m,896x1110,24,8,60,0, KEY ,1,60,598782,48.859474,50.537924,52.241600,39.692062,36.777555,97.042774,96.224760,53.513333,46.817341,0.000575
STILL,aom,av2,0,F2,Adventure_with_the_Windmills.y4m,896x1110,24,8,85,0, KEY ,1,85,450989,43.166259,49.213962,51.217686,33.745027,31.177024,96.198242,95.028096,51.060822,43.460913,0.003873
STILL,aom,av2,0,F2,Adventure_with_the_Windmills.y4m,896x1110,24,8,110,0, KEY ,1,110,321019,37.117518,48.375484,50.335253,27.305514,24.988655,93.841796,92.264371,46.283329,39.379252,0.004709
STILL,aom,av2,0,F2,Adventure_with_the_Windmills.y4m,896x1110,24,8,135,0, KEY ,1,135,203318,31.177000,47.432685,49.606855,21.037579,18.887664,87.184455,85.265511,38.278902,34.526203,0.004090
STILL,aom,av2,0,F2,Adventure_with_the_Windmills.y4m,896x1110,24,8,160,0, KEY ,1,160,103026,25.430515,45.857310,48.191238,14.912265,13.257293,69.983023,68.042424,29.984224,29.281910,0.004736
STILL,aom,av2,0,F2,Adventure_with_the_Windmills.y4m,896x1110,24,8,185,0, KEY ,1,185,30116,20.461397,43.687600,47.387013,9.814055,8.305844,39.901387,38.632192,22.879377,24.356376,0.007104
STILL,aom,av2,0,F2,Agapanthus_Postbloom2.y4m,1208x948,24,8,60,0, KEY ,1,60,148535,49.389241,50.480356,50.144760,34.085449,29.876260,96.936693,96.285451,50.093593,48.356809,2.921032
STILL,aom,av2,0,F2,Agapanthus_Postbloom2.y4m,1208x948,24,8,85,0, KEY ,1,85,79467,46.649456,47.648773,48.391870,30.519711,27.509511,95.767152,94.832621,47.536846,45.798803,3.789519
STILL,aom,av2,0,F2,Agapanthus_Postbloom2.y4m,1208x948,24,8,110,0, KEY ,1,110,45681,43.496568,44.416270,46.620280,26.958931,24.977532,93.521276,92.039497,44.027434,43.144993,3.584932
STILL,aom,av2,0,F2,Agapanthus_Postbloom2.y4m,1208x948,24,8,135,0, KEY ,1,135,25426,39.713071,40.873227,44.488907,22.856851,21.662693,87.330849,85.408650,39.187906,40.003499,2.907054
STILL,aom,av2,0,F2,Agapanthus_Postbloom2.y4m,1208x948,24,8,160,0, KEY ,1,160,13636,35.697889,37.232185,42.330006,18.554187,17.943450,74.427811,72.106133,33.848449,36.464632,2.187340
STILL,aom,av2,0,F2,Agapanthus_Postbloom2.y4m,1208x948,24,8,185,0, KEY ,1,185,6628,31.413710,33.379089,40.064890,14.009921,13.894710,50.081044,47.904345,28.304432,32.586718,1.972703
STILL,aom,av2,0,F2,Baruch.y4m,968x1188,24,8,60,0, KEY ,1,60,646507,48.747530,51.457237,52.824448,37.641227,37.049053,96.978756,95.909227,52.980398,46.884995,0.000025
STILL,aom,av2,0,F2,Baruch.y4m,968x1188,24,8,85,0, KEY ,1,85,487839,43.160507,50.885021,52.195764,31.866962,31.916583,95.940966,94.458162,51.377835,43.821793,0.000094
STILL,aom,av2,0,F2,Baruch.y4m,968x1188,24,8,110,0, KEY ,1,110,345952,37.196336,50.450865,51.952975,25.880916,26.089239,93.082578,91.123241,47.898586,39.762458,0.000065
STILL,aom,av2,0,F2,Baruch.y4m,968x1188,24,8,135,0, KEY ,1,135,217755,31.374585,49.885851,51.438788,19.774022,19.977825,85.423143,82.942054,39.869946,34.959097,0.000048
STILL,aom,av2,0,F2,Baruch.y4m,968x1188,24,8,160,0, KEY ,1,160,110074,25.673504,48.416774,50.326080,13.666142,13.964785,67.340273,64.704276,30.760144,29.730590,0.000046
STILL,aom,av2,0,F2,Baruch.y4m,968x1188,24,8,185,0, KEY ,1,185,33720,20.796841,47.370643,49.360778,8.223687,8.513365,39.859903,37.954452,23.280548,24.929067,0.000081
STILL,aom,av2,0,F2,Berlin-Fernsehturm.y4m,1290x856,24,8,60,0, KEY ,1,60,116126,49.909279,51.163311,50.862144,29.098209,28.259708,96.873480,96.003938,48.534982,46.545807,2.025269
STILL,aom,av2,0,F2,Berlin-Fernsehturm.y4m,1290x856,24,8,85,0, KEY ,1,85,56259,46.852098,49.531690,48.634666,24.752000,24.763335,95.553290,94.455419,45.800823,44.617260,7.271884
STILL,aom,av2,0,F2,Berlin-Fernsehturm.y4m,1290x856,24,8,110,0, KEY ,1,110,28145,43.597243,47.778030,46.315434,21.416798,21.700258,92.431788,91.037324,42.786026,42.847623,8.771601
STILL,aom,av2,0,F2,Berlin-Fernsehturm.y4m,1290x856,24,8,135,0, KEY ,1,135,13150,40.083878,45.529236,43.933171,18.229920,18.649373,85.485254,83.459123,39.062240,40.907068,9.122799
STILL,aom,av2,0,F2,Berlin-Fernsehturm.y4m,1290x856,24,8,160,0, KEY ,1,160,5664,36.626499,42.974708,41.651943,15.111949,15.645521,71.008734,68.777483,34.972909,38.512653,7.857166
STILL,aom,av2,0,F2,Berlin-Fernsehturm.y4m,1290x856,24,8,185,0, KEY ,1,185,2127,33.329160,40.390205,39.360877,11.960425,12.598398,46.158132,44.360691,30.742077,36.073831,6.547799
STILL,aom,av2,0,F2,Big_Easy_chair.y4m,1196x1008,24,8,60,0, KEY ,1,60,125095,48.982252,48.735347,49.056988,31.965555,27.815389,96.842618,96.071500,48.680967,47.383554,0.010718
STILL,aom,av2,0,F2,Big_Easy_chair.y4m,1196x1008,24,8,85,0, KEY ,1,85,27210,46.105325,46.292541,47.434457,25.946176,23.427672,95.867136,94.764097,44.754441,44.857472,2.308965
STILL,aom,av2,0,F2,Big_Easy_chair.y4m,1196x1008,24,8,110,0, KEY ,1,110,11370,44.627769,45.495168,46.662507,22.477192,21.246696,93.852717,92.094456,42.418293,43.813422,5.335801
STILL,aom,av2,0,F2,Big_Easy_chair.y4m,1196x1008,24,8,135,0, KEY ,1,135,5746,42.892291,44.278701,45.459750,20.027061,19.511240,88.284083,86.200433,40.122728,42.593194,5.804944
STILL,aom,av2,0,F2,Big_Easy_chair.y4m,1196x1008,24,8,160,0, KEY ,1,160,3066,40.564170,42.428425,43.710190,17.571858,17.594180,77.842412,75.240478,37.284809,40.807010,5.398382
STILL,aom,av2,0,F2,Big_Easy_chair.y4m,1196x1008,24,8,185,0, KEY ,1,185,1662,37.431727,39.796571,41.022521,14.756587,15.106037,62.034251,58.933722,33.611679,38.208108,4.582897
STILL,aom,av2,0,F2,Butterfly.y4m,1420x918,24,8,60,0, KEY ,1,60,227237,48.947953,49.240982,50.577560,31.560518,27.870497,96.918418,96.137707,48.737980,45.875022,1.359776
STILL,aom,av2,0,F2,Butterfly.y4m,1420x918,24,8,85,0, KEY ,1,85,75538,44.418542,46.193159,47.973645,26.604090,23.302032,96.034069,94.965939,45.451341,42.955511,11.539080
STILL,aom,av2,0,F2,Butterfly.y4m,1420x918,24,8,110,0, KEY ,1,110,26187,41.894908,44.445579,45.922579,23.131415,20.415576,93.723173,92.170556,42.204802,41.408283,11.689621
STILL,aom,av2,0,F2,Butterfly.y4m,1420x918,24,8,135,0, KEY ,1,135,12001,40.056910,42.353613,43.666087,20.878345,18.994160,87.886606,85.904232,39.529405,40.131516,11.445519
STILL,aom,av2,0,F2,Butterfly.y4m,1420x918,24,8,160,0, KEY ,1,160,5982,37.832797,40.015179,41.190243,18.528581,17.408046,76.668062,74.354297,36.047890,38.565903,9.808062
STILL,aom,av2,0,F2,Butterfly.y4m,1420x918,24,8,185,0, KEY ,1,185,2983,34.839868,37.644154,38.937321,15.758790,15.219186,57.309336,54.934235,31.745265,36.447323,5.920931
STILL,aom,av2,0,F2,Cecret_Lake_Panorama.y4m,1586x752,24,8,60,0, KEY ,1,60,584637,49.591807,49.654917,49.519872,33.992289,32.775923,96.914116,96.045764,52.881568,47.083781,0.009610
STILL,aom,av2,0,F2,Cecret_Lake_Panorama.y4m,1586x752,24,8,85,0, KEY ,1,85,396795,44.069040,44.934425,44.923345,28.738906,27.966239,95.838353,94.624198,48.815925,42.245596,0.038507
STILL,aom,av2,0,F2,Cecret_Lake_Panorama.y4m,1586x752,24,8,110,0, KEY ,1,110,251044,38.255998,41.200545,41.961368,23.755708,23.264151,92.891559,91.337140,43.444924,38.031918,0.073621
STILL,aom,av2,0,F2,Cecret_Lake_Panorama.y4m,1586x752,24,8,135,0, KEY ,1,135,133641,32.252815,38.666355,39.941892,18.635740,18.253184,84.998080,83.213442,36.894805,33.842378,0.077190
STILL,aom,av2,0,F2,Cecret_Lake_Panorama.y4m,1586x752,24,8,160,0, KEY ,1,160,45156,27.047054,36.613645,38.085823,13.398385,13.063723,66.010702,64.144965,29.787061,29.807578,0.071456
STILL,aom,av2,0,F2,Cecret_Lake_Panorama.y4m,1586x752,24,8,185,0, KEY ,1,185,11960,24.026646,34.518750,35.865567,8.674593,8.809449,35.118468,33.701800,23.747461,26.997067,0.215430
STILL,aom,av2,0,F2,Claudette.y4m,900x1100,24,8,60,0, KEY ,1,60,434713,49.296277,50.093419,50.178817,37.186209,32.779262,96.758740,95.844261,53.053049,45.658653,0.020420
STILL,aom,av2,0,F2,Claudette.y4m,900x1100,24,8,85,0, KEY ,1,85,289906,43.506571,47.889298,48.057620,31.033899,27.097717,95.435366,94.168697,48.741341,42.197917,0.088458
STILL,aom,av2,0,F2,Claudette.y4m,900x1100,24,8,110,0, KEY ,1,110,176154,37.805606,46.263705,46.566536,25.071409,21.526100,91.853739,90.254627,42.893416,38.605198,0.139924
STILL,aom,av2,0,F2,Claudette.y4m,900x1100,24,8,135,0, KEY ,1,135,89102,32.375643,44.468216,45.046751,19.166231,16.413772,82.413007,80.637695,36.032488,34.581596,0.207002
STILL,aom,av2,0,F2,Claudette.y4m,900x1100,24,8,160,0, KEY ,1,160,28232,27.558796,42.103199,43.177452,13.810642,11.687668,60.243340,58.469197,29.381397,30.528906,0.419734
STILL,aom,av2,0,F2,Claudette.y4m,900x1100,24,8,185,0, KEY ,1,185,7308,24.850929,40.430905,41.582996,9.074656,7.902706,27.727995,26.827974,23.994205,28.012046,0.399348
STILL,aom,av2,0,F2,Collage_Oppeln.y4m,904x1280,24,8,60,0, KEY ,1,60,354537,49.451657,49.868971,50.389461,36.019879,31.759532,97.000426,96.292532,51.655183,46.953072,0.029901
STILL,aom,av2,0,F2,Collage_Oppeln.y4m,904x1280,24,8,85,0, KEY ,1,85,215992,44.552778,46.164284,46.899771,31.238326,27.588362,96.146988,95.134974,48.140031,43.027130,0.116521
STILL,aom,av2,0,F2,Collage_Oppeln.y4m,904x1280,24,8,110,0, KEY ,1,110,123050,39.552716,42.925870,43.857818,26.420885,23.259508,93.901016,92.455909,43.265263,39.544766,0.159066
STILL,aom,av2,0,F2,Collage_Oppeln.y4m,904x1280,24,8,135,0, KEY ,1,135,61918,34.771959,40.119868,41.032037,21.502984,18.941502,87.931936,86.011821,37.304611,36.155591,0.159691
STILL,aom,av2,0,F2,Collage_Oppeln.y4m,904x1280,24,8,160,0, KEY ,1,160,27115,30.524241,37.543867,38.466701,16.748697,14.832155,74.024102,71.835075,31.269456,32.904845,0.151457
STILL,aom,av2,0,F2,Collage_Oppeln.y4m,904x1280,24,8,185,0, KEY ,1,185,10110,26.858447,34.885878,35.756625,12.107003,10.925601,49.896793,48.095374,25.589687,29.705697,0.162077
STILL,aom,av2,0,F2,Corona_Arch.y4m,1272x922,24,8,60,0, KEY ,1,60,391224,49.036149,49.111506,49.662405,33.679910,29.709355,96.771233,95.845430,50.777004,50.285901,0.000540
STILL,aom,av2,0,F2,Corona_Arch.y4m,1272x922,24,8,85,0, KEY ,1,85,206698,43.647651,46.342221,45.581304,27.270440,24.113844,95.687871,94.405847,46.280897,45.483007,2.143578
STILL,aom,av2,0,F2,Corona_Arch.y4m,1272x922,24,8,110,0, KEY ,1,110,104790,38.991072,44.348117,41.984146,23.486407,20.761752,92.357227,90.776119,42.520496,41.895660,5.748107
STILL,aom,av2,0,F2,Corona_Arch.y4m,1272x922,24,8,135,0, KEY ,1,135,42917,34.675876,42.333201,39.068703,19.671445,16.987868,83.947621,81.968945,36.947491,38.640415,5.796167
STILL,aom,av2,0,F2,Corona_Arch.y4m,1272x922,24,8,160,0, KEY ,1,160,15347,31.316247,39.866646,36.576713,15.151031,13.189511,65.238497,63.335777,31.180299,35.900088,5.276985
STILL,aom,av2,0,F2,Corona_Arch.y4m,1272x922,24,8,185,0, KEY ,1,185,4895,28.691640,36.915942,33.673377,10.906844,9.901554,36.211134,34.754352,26.531943,33.497497,4.581560
STILL,aom,av2,0,F2,Correfocs_Festa_Major_del_Clot.y4m,1306x870,24,8,60,0, KEY ,1,60,255184,49.141256,50.086507,49.839083,30.868280,29.340098,96.708342,95.732837,50.409872,49.232931,0.322583
STILL,aom,av2,0,F2,Correfocs_Festa_Major_del_Clot.y4m,1306x870,24,8,85,0, KEY ,1,85,132263,44.960959,47.271256,46.218306,25.584828,24.832764,94.997414,93.771709,46.437795,45.654464,1.405038
STILL,aom,av2,0,F2,Correfocs_Festa_Major_del_Clot.y4m,1306x870,24,8,110,0, KEY ,1,110,72305,41.137895,44.842769,43.057800,21.336582,21.146682,91.140411,89.421361,42.184690,42.736204,1.991213
STILL,aom,av2,0,F2,Correfocs_Festa_Major_del_Clot.y4m,1306x870,24,8,135,0, KEY ,1,135,37161,37.032000,42.735371,39.963989,17.031255,17.325366,81.261432,79.286716,37.233416,39.712705,2.051029
STILL,aom,av2,0,F2,Correfocs_Festa_Major_del_Clot.y4m,1306x870,24,8,160,0, KEY ,1,160,16144,32.875548,40.269148,36.681652,12.797884,13.413667,61.920191,59.922151,32.063365,36.472860,1.901938
STILL,aom,av2,0,F2,Correfocs_Festa_Major_del_Clot.y4m,1306x870,24,8,185,0, KEY ,1,185,4592,28.979900,37.799993,33.274648,8.393265,9.270826,32.884147,31.521663,26.796232,33.184861,1.837026
STILL,aom,av2,0,F2,Crepuscular_rays_at_Sunset_near_Waterberg_Plateau.y4m,1402x934,24,8,60,0, KEY ,1,60,416671,49.345370,49.710384,49.717872,34.501299,30.446917,96.174112,94.937780,51.871858,47.491282,0.220543
STILL,aom,av2,0,F2,Crepuscular_rays_at_Sunset_near_Waterberg_Plateau.y4m,1402x934,24,8,85,0, KEY ,1,85,242896,44.328517,46.186248,45.982663,28.986504,25.727478,93.781305,92.300823,47.717578,43.365376,0.478051
STILL,aom,av2,0,F2,Crepuscular_rays_at_Sunset_near_Waterberg_Plateau.y4m,1402x934,24,8,110,0, KEY ,1,110,122374,38.891478,43.563636,43.258140,23.391212,20.532101,88.285833,86.480171,41.993894,39.659843,0.601736
STILL,aom,av2,0,F2,Crepuscular_rays_at_Sunset_near_Waterberg_Plateau.y4m,1402x934,24,8,135,0, KEY ,1,135,41121,34.053394,41.349456,40.922014,17.516199,15.054379,73.838843,72.013820,35.461654,36.144218,0.588960
STILL,aom,av2,0,F2,Crepuscular_rays_at_Sunset_near_Waterberg_Plateau.y4m,1402x934,24,8,160,0, KEY ,1,160,10981,31.132088,39.008415,38.716982,12.348076,10.890658,46.874482,45.337384,30.321680,33.558116,0.653586
STILL,aom,av2,0,F2,Crepuscular_rays_at_Sunset_near_Waterberg_Plateau.y4m,1402x934,24,8,185,0, KEY ,1,185,3180,29.388660,36.117739,35.836306,8.682913,8.228675,14.964769,14.341467,26.954493,31.415569,0.790984
STILL,aom,av2,0,F2,Esquibien_Jean_Perrot.y4m,818x1228,24,8,60,0, KEY ,1,60,399466,49.263130,49.871331,50.031971,32.525634,31.314738,96.923306,96.111858,51.739687,46.564084,0.547225
STILL,aom,av2,0,F2,Esquibien_Jean_Perrot.y4m,818x1228,24,8,85,0, KEY ,1,85,250028,43.613604,47.282765,47.262611,26.789799,25.931834,96.047890,94.836905,47.729941,42.933544,0.755230
STILL,aom,av2,0,F2,Esquibien_Jean_Perrot.y4m,818x1228,24,8,110,0, KEY ,1,110,139606,37.777331,45.760090,45.550007,21.815306,20.959748,93.454739,91.869389,42.732183,39.289343,0.637840
STILL,aom,av2,0,F2,Esquibien_Jean_Perrot.y4m,818x1228,24,8,135,0, KEY ,1,135,51813,32.424966,44.218550,44.088067,16.076524,15.280242,86.531971,84.482249,35.906355,35.324783,0.542487
STILL,aom,av2,0,F2,Esquibien_Jean_Perrot.y4m,818x1228,24,8,160,0, KEY ,1,160,15827,29.263613,42.481469,42.440802,11.674662,11.365999,71.015351,68.681694,30.131161,32.595667,0.663809
STILL,aom,av2,0,F2,Esquibien_Jean_Perrot.y4m,818x1228,24,8,185,0, KEY ,1,185,5930,27.142518,40.117243,40.074786,9.138805,9.315961,47.363657,44.947996,26.101021,30.554106,0.845617
STILL,aom,av2,0,F2,Florac-Le_Vibron-Source_du_Pecher.y4m,1080x874,24,8,60,0, KEY ,1,60,487758,49.313537,48.778075,48.787955,34.273831,32.914470,97.006948,96.229594,53.599903,45.623676,0.011487
STILL,aom,av2,0,F2,Florac-Le_Vibron-Source_du_Pecher.y4m,1080x874,24,8,85,0, KEY ,1,85,305353,43.283220,44.123505,43.761253,28.346507,27.117282,96.071810,94.940138,48.731660,40.691959,0.208667
STILL,aom,av2,0,F2,Florac-Le_Vibron-Source_du_Pecher.y4m,1080x874,24,8,110,0, KEY ,1,110,171444,37.415236,41.158445,40.926708,22.336445,21.264166,93.443405,91.916689,42.531185,37.069031,0.301766
STILL,aom,av2,0,F2,Florac-Le_Vibron-Source_du_Pecher.y4m,1080x874,24,8,135,0, KEY ,1,135,83258,32.270133,39.129395,39.343312,16.840164,16.233282,86.379753,84.356241,35.870474,33.670515,0.550914
STILL,aom,av2,0,F2,Florac-Le_Vibron-Source_du_Pecher.y4m,1080x874,24,8,160,0, KEY ,1,160,31285,27.896150,37.349857,37.942914,11.807763,11.720611,69.482537,67.186197,29.473036,30.481405,0.826665
STILL,aom,av2,0,F2,Florac-Le_Vibron-Source_du_Pecher.y4m,1080x874,24,8,185,0, KEY ,1,185,8798,24.606730,34.891958,36.244832,7.645166,8.031597,42.902720,41.228347,24.022260,27.830190,0.742315
STILL,aom,av2,0,F2,Fontaine_Place_Stanislas.y4m,1390x820,24,8,60,0, KEY ,1,60,298163,49.530394,49.259636,50.516567,31.078798,30.049182,96.985101,96.232011,50.439590,46.015708,5.899200
STILL,aom,av2,0,F2,Fontaine_Place_Stanislas.y4m,1390x820,24,8,85,0, KEY ,1,85,176362,44.956165,45.998864,47.436867,27.014418,26.126452,96.076192,94.923137,47.457063,42.968452,6.567561
STILL,aom,av2,0,F2,Fontaine_Place_Stanislas.y4m,1390x820,24,8,110,0, KEY ,1,110,100745,40.311189,42.984825,45.163213,22.332900,21.918956,93.354107,91.808162,42.921319,40.211444,6.886759
STILL,aom,av2,0,F2,Fontaine_Place_Stanislas.y4m,1390x820,24,8,135,0, KEY ,1,135,52710,35.663411,40.424307,43.336789,17.882853,17.961168,86.215737,84.399868,37.702802,37.336711,7.397257
STILL,aom,av2,0,F2,Fontaine_Place_Stanislas.y4m,1390x820,24,8,160,0, KEY ,1,160,22596,31.157999,38.203152,41.345474,14.238166,14.485167,70.568916,68.555481,32.312032,34.320494,6.845692
STILL,aom,av2,0,F2,Fontaine_Place_Stanislas.y4m,1390x820,24,8,185,0, KEY ,1,185,7278,27.450247,35.818675,38.906368,10.479768,10.967311,43.780398,42.068157,26.580268,31.253088,5.301065
STILL,aom,av2,0,F2,Genmaicha_Tea.y4m,1260x840,24,8,60,0, KEY ,1,60,106138,50.410782,51.928034,51.709727,31.284357,30.623617,97.013773,96.288150,48.307147,49.470788,0.000111
STILL,aom,av2,0,F2,Genmaicha_Tea.y4m,1260x840,24,8,85,0, KEY ,1,85,61780,47.698666,49.848502,49.567315,29.095265,28.786783,96.127223,95.110649,47.141631,47.616341,0.001540
STILL,aom,av2,0,F2,Genmaicha_Tea.y4m,1260x840,24,8,110,0, KEY ,1,110,36341,43.972739,47.717996,47.445888,26.859954,26.691255,93.995884,92.661513,45.413589,45.702136,0.000934
STILL,aom,av2,0,F2,Genmaicha_Tea.y4m,1260x840,24,8,135,0, KEY ,1,135,19198,39.591380,45.432463,45.096451,23.874788,23.827059,89.094512,87.220358,41.634920,43.382884,0.000547
STILL,aom,av2,0,F2,Genmaicha_Tea.y4m,1260x840,24,8,160,0, KEY ,1,160,9050,35.354227,43.076648,42.550892,20.304082,20.380247,78.210832,75.901205,35.999751,40.775868,0.000310
STILL,aom,av2,0,F2,Genmaicha_Tea.y4m,1260x840,24,8,185,0, KEY ,1,185,3755,31.683301,40.890718,39.861175,16.302743,16.553516,56.531944,54.340657,30.351154,37.441238,0.000306
STILL,aom,av2,0,F2,Homestead_in_Montana.y4m,1326x826,24,8,60,0, KEY ,1,60,219575,49.271799,49.853934,50.307578,31.436968,30.081016,96.760796,95.828414,50.907451,48.996744,0.211339
STILL,aom,av2,0,F2,Homestead_in_Montana.y4m,1326x826,24,8,85,0, KEY ,1,85,117507,45.526240,46.569467,46.406210,27.894331,26.905074,95.635084,94.219632,47.922713,45.581669,0.549955
STILL,aom,av2,0,F2,Homestead_in_Montana.y4m,1326x826,24,8,110,0, KEY ,1,110,62536,41.580866,43.519937,42.876771,23.822355,23.346813,92.427128,90.623014,43.169406,42.441150,0.592715
STILL,aom,av2,0,F2,Homestead_in_Montana.y4m,1326x826,24,8,135,0, KEY ,1,135,31060,37.550486,40.434818,39.658777,19.275812,19.350328,84.606198,82.279706,37.292791,39.270812,0.637736
STILL,aom,av2,0,F2,Homestead_in_Montana.y4m,1326x826,24,8,160,0, KEY ,1,160,14366,33.734573,37.391346,36.543833,14.758321,15.293228,67.197083,64.941969,31.604645,36.063809,0.693122
STILL,aom,av2,0,F2,Homestead_in_Montana.y4m,1326x826,24,8,185,0, KEY ,1,185,5887,30.192479,34.184684,33.391807,10.614318,11.438123,40.041390,38.431836,26.629190,32.830550,0.853819
STILL,aom,av2,0,F2,Madeira_151_Funchal_Mercado_dos_Lavradores.y4m,1228x816,24,8,60,0, KEY ,1,60,340307,49.091490,49.040835,49.046311,35.020860,32.471803,96.943025,96.226684,53.851113,47.962129,0.319504
STILL,aom,av2,0,F2,Madeira_151_Funchal_Mercado_dos_Lavradores.y4m,1228x816,24,8,85,0, KEY ,1,85,185850,43.945161,44.610527,44.928595,29.195621,27.208494,95.797161,94.779281,48.781012,43.348834,0.398509
STILL,aom,av2,0,F2,Madeira_151_Funchal_Mercado_dos_Lavradores.y4m,1228x816,24,8,110,0, KEY ,1,110,96842,39.504200,40.898297,41.553123,23.926071,22.600845,93.117288,91.681536,42.451773,39.618875,0.365526
STILL,aom,av2,0,F2,Madeira_151_Funchal_Mercado_dos_Lavradores.y4m,1228x816,24,8,135,0, KEY ,1,135,46798,35.431557,37.419188,38.453517,18.797660,18.200539,85.801375,84.089306,35.916198,36.151406,0.422827
STILL,aom,av2,0,F2,Madeira_151_Funchal_Mercado_dos_Lavradores.y4m,1228x816,24,8,160,0, KEY ,1,160,21690,31.704328,34.317471,35.467126,14.212532,14.305561,70.213715,68.395395,30.107109,32.950674,0.536923
STILL,aom,av2,0,F2,Madeira_151_Funchal_Mercado_dos_Lavradores.y4m,1228x816,24,8,185,0, KEY ,1,185,8924,28.129173,31.210971,32.316532,9.893672,10.496245,43.158852,41.623448,24.914436,29.659480,0.730810
STILL,aom,av2,0,F2,Madeira_159_Funchal_Mercado_dos_Lavradores.y4m,1228x816,24,8,60,0, KEY ,1,60,513477,49.128235,49.049095,48.969846,36.288931,34.098775,97.081978,96.439178,54.177965,46.010527,0.014688
STILL,aom,av2,0,F2,Madeira_159_Funchal_Mercado_dos_Lavradores.y4m,1228x816,24,8,85,0, KEY ,1,85,332060,43.350883,44.590902,43.962694,30.532860,28.565089,96.313742,95.340433,49.529357,41.330442,0.062745
STILL,aom,av2,0,F2,Madeira_159_Funchal_Mercado_dos_Lavradores.y4m,1228x816,24,8,110,0, KEY ,1,110,193015,37.668599,40.636985,39.745859,24.535000,22.852011,94.287816,92.859620,43.177357,37.129826,0.101533
STILL,aom,av2,0,F2,Madeira_159_Funchal_Mercado_dos_Lavradores.y4m,1228x816,24,8,135,0, KEY ,1,135,95344,32.585617,37.009680,36.381049,19.086195,17.895385,88.214775,86.340818,36.339554,33.254360,0.201920
STILL,aom,av2,0,F2,Madeira_159_Funchal_Mercado_dos_Lavradores.y4m,1228x816,24,8,160,0, KEY ,1,160,40516,28.267007,34.021296,33.846507,14.757292,14.170812,73.986776,72.034270,30.221873,29.984566,0.421303
STILL,aom,av2,0,F2,Madeira_159_Funchal_Mercado_dos_Lavradores.y4m,1228x816,24,8,185,0, KEY ,1,185,14792,24.660228,31.492709,31.501172,10.736821,10.651518,49.846776,48.159649,24.328467,26.964317,0.396669
STILL,aom,av2,0,F2,MagicKindom.y4m,1000x1000,24,8,60,0, KEY ,1,60,584871,49.292231,48.538252,48.624176,39.060306,34.819115,96.990526,96.217644,54.930979,48.476661,0.000000
STILL,aom,av2,0,F2,MagicKindom.y4m,1000x1000,24,8,85,0, KEY ,1,85,378325,43.077004,43.618154,43.626440,32.625400,28.372499,96.113074,94.953281,49.583258,42.818442,0.000098
STILL,aom,av2,0,F2,MagicKindom.y4m,1000x1000,24,8,110,0, KEY ,1,110,226354,37.148646,40.838015,40.822871,26.248368,22.605949,93.359130,91.859742,43.325832,38.288723,0.579633
STILL,aom,av2,0,F2,MagicKindom.y4m,1000x1000,24,8,135,0, KEY ,1,135,111507,31.496776,38.616659,38.531093,20.768798,17.525963,86.294185,84.332603,36.391832,33.830143,0.700480
STILL,aom,av2,0,F2,MagicKindom.y4m,1000x1000,24,8,160,0, KEY ,1,160,40196,26.940604,36.577593,36.660245,15.482750,12.658296,68.679263,66.934932,29.284332,30.007226,0.863456
STILL,aom,av2,0,F2,MagicKindom.y4m,1000x1000,24,8,185,0, KEY ,1,185,12030,23.777566,34.172124,34.870006,10.236657,8.452664,40.408310,39.063430,23.193527,27.040020,0.968180
STILL,aom,av2,0,F2,Michigan_Stadium.y4m,1400x934,24,8,60,0, KEY ,1,60,697835,49.311285,49.321532,49.494628,38.180094,33.363738,97.128962,96.449656,53.532020,47.675295,0.038089
STILL,aom,av2,0,F2,Michigan_Stadium.y4m,1400x934,24,8,85,0, KEY ,1,85,486714,44.037584,44.413775,44.583510,33.061130,29.005129,96.402781,95.382241,49.575846,42.775197,0.079081
STILL,aom,av2,0,F2,Michigan_Stadium.y4m,1400x934,24,8,110,0, KEY ,1,110,320334,38.595612,39.264435,39.696302,28.117388,24.904851,94.389246,92.919227,44.316959,38.100636,0.142730
STILL,aom,av2,0,F2,Michigan_Stadium.y4m,1400x934,24,8,135,0, KEY ,1,135,188396,32.989907,34.254411,36.071725,23.006216,20.581011,88.597899,86.722648,37.783350,33.693558,0.204735
STILL,aom,av2,0,F2,Michigan_Stadium.y4m,1400x934,24,8,160,0, KEY ,1,160,89013,27.326469,30.508797,33.656276,17.692203,15.901595,73.817381,71.810090,30.663454,29.496620,0.133209
STILL,aom,av2,0,F2,Michigan_Stadium.y4m,1400x934,24,8,185,0, KEY ,1,185,28624,22.692303,28.151860,31.737616,12.282406,10.863464,46.299897,44.598398,23.517471,25.809710,0.264547
STILL,aom,av2,0,F2,OperaLamps.y4m,1296x864,24,8,60,0, KEY ,1,60,476233,49.238911,49.130492,49.137646,36.070906,33.909405,96.915015,96.138232,54.190239,45.984221,0.719622
STILL,aom,av2,0,F2,OperaLamps.y4m,1296x864,24,8,85,0, KEY ,1,85,295912,44.085747,43.922623,43.938518,30.997920,29.323178,95.762025,94.659145,49.970197,41.012817,1.261308
STILL,aom,av2,0,F2,OperaLamps.y4m,1296x864,24,8,110,0, KEY ,1,110,168282,39.051714,39.357824,39.565953,25.856021,24.645792,93.054201,91.448128,43.832500,36.802534,1.085380
STILL,aom,av2,0,F2,OperaLamps.y4m,1296x864,24,8,135,0, KEY ,1,135,84121,34.191260,35.461970,36.051195,20.569242,19.794146,85.702900,83.731086,36.583110,33.045508,0.931050
STILL,aom,av2,0,F2,OperaLamps.y4m,1296x864,24,8,160,0, KEY ,1,160,37667,29.783164,32.436106,33.659888,15.384242,15.043583,68.867446,66.796093,29.763399,29.748811,0.779021
STILL,aom,av2,0,F2,OperaLamps.y4m,1296x864,24,8,185,0, KEY ,1,185,14023,25.807167,30.014926,31.711822,10.065238,10.280727,38.576701,37.200831,23.632001,26.594528,0.634643
STILL,aom,av2,0,F2,Orion_Nebula.y4m,1200x840,24,8,60,0, KEY ,1,60,147672,49.109112,50.019843,50.584166,30.370582,28.551655,96.169806,94.928318,50.423844,47.855084,0.000019
STILL,aom,av2,0,F2,Orion_Nebula.y4m,1200x840,24,8,85,0, KEY ,1,85,54236,45.206300,47.669477,48.031475,24.051825,23.253518,93.759837,92.278851,45.300688,44.750003,0.022860
STILL,aom,av2,0,F2,Orion_Nebula.y4m,1200x840,24,8,110,0, KEY ,1,110,22637,42.481679,45.693486,45.636879,19.141370,19.358541,87.926976,86.296228,40.564934,42.458711,0.138661
STILL,aom,av2,0,F2,Orion_Nebula.y4m,1200x840,24,8,135,0, KEY ,1,135,9642,39.867102,43.701864,43.113507,15.258993,16.079983,74.450106,72.893188,36.558542,40.227036,0.419734
STILL,aom,av2,0,F2,Orion_Nebula.y4m,1200x840,24,8,160,0, KEY ,1,160,3937,37.145300,41.533064,40.368042,12.020854,13.145601,52.503799,51.012855,33.108511,37.889172,0.789246
STILL,aom,av2,0,F2,Orion_Nebula.y4m,1200x840,24,8,185,0, KEY ,1,185,1500,34.374450,39.526680,38.013638,9.481405,10.558490,22.082904,21.306488,30.046012,35.520013,1.160638
STILL,aom,av2,0,F2,Saint_Catherine-Caravaggio.y4m,876x1140,24,8,60,0, KEY ,1,60,312538,49.163485,49.717536,50.242361,31.434086,29.889634,97.036337,96.348938,51.164475,46.496258,0.000004
STILL,aom,av2,0,F2,Saint_Catherine-Caravaggio.y4m,876x1140,24,8,85,0, KEY ,1,85,148677,42.827790,47.707241,47.940834,24.528680,23.164451,96.247477,95.231647,46.019452,43.224258,0.989607
STILL,aom,av2,0,F2,Saint_Catherine-Caravaggio.y4m,876x1140,24,8,110,0, KEY ,1,110,55153,38.493181,45.737038,45.761536,19.443829,18.578729,93.837457,92.465865,40.891474,40.404164,4.044365
STILL,aom,av2,0,F2,Saint_Catherine-Caravaggio.y4m,876x1140,24,8,135,0, KEY ,1,135,21829,35.677290,43.664296,43.605188,15.888653,15.648006,86.954170,85.193781,36.496313,38.306647,5.914965
STILL,aom,av2,0,F2,Saint_Catherine-Caravaggio.y4m,876x1140,24,8,160,0, KEY ,1,160,9604,33.179727,41.091316,41.113543,13.046013,13.333169,73.004314,70.961527,32.567011,36.173940,6.425433
STILL,aom,av2,0,F2,Saint_Catherine-Caravaggio.y4m,876x1140,24,8,185,0, KEY ,1,185,3826,30.354528,38.035587,38.605167,10.322801,10.943484,52.192935,49.903876,28.391887,33.735361,5.805239
STILL,aom,av2,0,F2,Streptopelia_orientalis.y4m,1404x936,24,8,60,0, KEY ,1,60,254311,48.643604,49.968311,50.666739,37.064692,30.693030,96.878984,96.137309,52.138703,47.621893,0.008367
STILL,aom,av2,0,F2,Streptopelia_orientalis.y4m,1404x936,24,8,85,0, KEY ,1,85,124588,45.142996,46.312678,47.623064,31.438410,26.872108,95.680622,94.574958,47.676482,44.273476,0.023563
STILL,aom,av2,0,F2,Streptopelia_orientalis.y4m,1404x936,24,8,110,0, KEY ,1,110,65018,41.836939,42.845035,44.793412,26.469065,23.380709,92.650697,91.118145,42.576946,41.308988,0.017123
STILL,aom,av2,0,F2,Streptopelia_orientalis.y4m,1404x936,24,8,135,0, KEY ,1,135,33401,38.364741,39.436956,41.664134,21.549076,19.667762,85.383268,83.371147,37.076464,38.107234,0.009208
STILL,aom,av2,0,F2,Streptopelia_orientalis.y4m,1404x936,24,8,160,0, KEY ,1,160,16863,34.707843,36.168158,38.720966,16.665467,15.771481,69.086390,67.202069,31.848164,34.829974,0.012696
STILL,aom,av2,0,F2,Streptopelia_orientalis.y4m,1404x936,24,8,185,0, KEY ,1,185,7733,30.844592,33.049298,36.030470,12.158788,11.918111,43.321224,41.728803,26.956506,31.363149,0.013400
STILL,aom,av2,0,F2,Swallowtail.y4m,1300x900,24,8,60,0, KEY ,1,60,315189,48.896769,50.107195,50.745817,35.560545,30.157339,97.020816,96.284395,51.415729,49.604929,0.010171
STILL,aom,av2,0,F2,Swallowtail.y4m,1300x900,24,8,85,0, KEY ,1,85,133129,43.352137,46.959394,47.685915,28.925643,24.060627,96.153632,95.058955,46.333970,45.006374,0.108730
STILL,aom,av2,0,F2,Swallowtail.y4m,1300x900,24,8,110,0, KEY ,1,110,68463,40.448558,43.845784,44.649127,25.133683,21.616554,93.731478,92.081383,42.578502,42.408286,0.285843
STILL,aom,av2,0,F2,Swallowtail.y4m,1300x900,24,8,135,0, KEY ,1,135,35201,37.194806,40.569586,41.378327,21.147130,18.820856,87.224313,85.125558,37.556859,39.534948,0.290635
STILL,aom,av2,0,F2,Swallowtail.y4m,1300x900,24,8,160,0, KEY ,1,160,17511,33.704295,37.409981,38.068499,17.366432,15.931382,73.866033,71.486256,32.283238,36.487114,0.265018
STILL,aom,av2,0,F2,Swallowtail.y4m,1300x900,24,8,185,0, KEY ,1,185,8029,30.060528,34.119637,35.102384,13.320956,12.731594,50.605562,48.585016,27.116218,33.137470,0.324159
STILL,aom,av2,0,F2,Washington_Monument.y4m,1204x904,24,8,60,0, KEY ,1,60,294918,49.467771,50.426786,50.352122,34.697603,30.531528,96.821248,95.743345,51.396248,47.310723,0.400608
STILL,aom,av2,0,F2,Washington_Monument.y4m,1204x904,24,8,85,0, KEY ,1,85,182757,44.731830,48.361148,48.049265,28.779758,25.710450,95.584839,94.194185,47.373451,44.275452,0.563990
STILL,aom,av2,0,F2,Washington_Monument.y4m,1204x904,24,8,110,0, KEY ,1,110,106369,39.727412,46.271463,46.376429,23.307973,21.021506,92.059310,90.317602,42.244712,41.233777,0.585401
STILL,aom,av2,0,F2,Washington_Monument.y4m,1204x904,24,8,135,0, KEY ,1,135,51515,34.757519,44.019214,44.596738,18.108537,16.398848,83.069481,81.208644,36.614263,37.882345,0.492206
STILL,aom,av2,0,F2,Washington_Monument.y4m,1204x904,24,8,160,0, KEY ,1,160,18623,30.458243,41.762219,42.776116,13.830964,12.701603,63.383493,61.531819,31.482385,34.585814,0.469079
STILL,aom,av2,0,F2,Washington_Monument.y4m,1204x904,24,8,185,0, KEY ,1,185,4933,27.418907,38.235262,40.088919,10.128684,9.560902,35.604129,34.305697,26.758218,31.456978,0.332656
STILL,aom,av2,0,F2,Wasserfassstelle_von_1898_im_Schanerloch.y4m,816x1150,24,8,60,0, KEY ,1,60,405899,49.236401,49.713407,49.809745,34.951502,32.948398,96.968599,96.168952,53.035034,47.326827,0.002546
STILL,aom,av2,0,F2,Wasserfassstelle_von_1898_im_Schanerloch.y4m,816x1150,24,8,85,0, KEY ,1,85,262055,43.555734,47.007763,47.437473,28.892821,27.240972,95.936755,94.825790,48.751120,43.396370,0.011184
STILL,aom,av2,0,F2,Wasserfassstelle_von_1898_im_Schanerloch.y4m,816x1150,24,8,110,0, KEY ,1,110,159987,38.068439,45.309367,45.982501,23.102022,22.031303,93.201299,91.731729,43.110207,39.662865,0.024001
STILL,aom,av2,0,F2,Wasserfassstelle_von_1898_im_Schanerloch.y4m,816x1150,24,8,135,0, KEY ,1,135,83675,32.785735,44.033807,44.645730,17.640716,17.202267,85.884117,83.968047,36.612386,35.712372,0.059717
STILL,aom,av2,0,F2,Wasserfassstelle_von_1898_im_Schanerloch.y4m,816x1150,24,8,160,0, KEY ,1,160,33446,28.122234,42.296588,42.662312,12.864134,12.920103,67.741625,65.919342,30.114824,31.824111,0.128328
STILL,aom,av2,0,F2,Wasserfassstelle_von_1898_im_Schanerloch.y4m,816x1150,24,8,185,0, KEY ,1,185,10300,24.669612,38.487584,38.942995,8.625082,9.055512,38.934405,37.595470,24.136419,28.327396,0.343419
STILL,aom,av2,0,F2,Zoo_de_la_Barben.y4m,1296x864,24,8,60,0, KEY ,1,60,145375,48.478890,50.069150,50.205969,29.105787,27.707546,96.723125,95.846754,48.500714,44.787400,1.275516
STILL,aom,av2,0,F2,Zoo_de_la_Barben.y4m,1296x864,24,8,85,0, KEY ,1,85,60524,45.651614,48.037898,48.103014,26.007577,25.045016,95.550736,94.267860,46.481105,43.190152,9.596997
STILL,aom,av2,0,F2,Zoo_de_la_Barben.y4m,1296x864,24,8,110,0, KEY ,1,110,28848,42.805137,45.972784,45.869910,23.313965,22.676799,92.829151,90.949987,43.772333,41.754975,9.087428
STILL,aom,av2,0,F2,Zoo_de_la_Barben.y4m,1296x864,24,8,135,0, KEY ,1,135,12349,39.592877,43.719843,43.512120,19.469869,19.395304,85.591789,83.219755,39.253488,40.102330,8.713396
STILL,aom,av2,0,F2,Zoo_de_la_Barben.y4m,1296x864,24,8,160,0, KEY ,1,160,5100,36.688414,41.241187,40.990806,15.616261,16.081033,71.282384,68.594162,34.609672,38.086071,7.759960
STILL,aom,av2,0,F2,Zoo_de_la_Barben.y4m,1296x864,24,8,185,0, KEY ,1,185,2030,33.812705,38.812160,38.108309,12.087536,12.827542,48.165878,45.656278,30.446963,35.355579,6.959459
